generated/Hello.vcd
$date
2021-11-12T14:31+0000
$end
$version
0.2
$end
$comment

$end
$timescale 1ns  $end
$scope module Hello $end
 $var wire 32 " io_testerDataMemDataRead $end
 $var wire 2 $ stateReg $end
 $var wire 2 & _GEN_16 $end
 $var wire 16 ( _GEN_10 $end
 $var wire 1 ) _T $end
 $var wire 1 , io_testerDataMemWriteEnable $end
 $var wire 32 - dataReg $end
 $var wire 32 . _GEN_19 $end
 $var wire 16 3 _GEN_5 $end
 $var wire 1 5 _GEN_13 $end
 $var wire 2 8 _GEN_8 $end
 $var wire 2 = _GEN_12 $end
 $var wire 32 > io_testerDataMemDataWrite $end
 $var wire 1 ? _GEN_15 $end
 $var wire 16 @ _GEN_7 $end
 $var wire 1 A io_start $end
 $var wire 1 E io_testerDataMemEnable $end
 $var wire 16 F addressReg $end
 $var wire 16 G _GEN_1 $end
 $var wire 2 M _GEN_4 $end
 $var wire 1 P clock $end
 $var wire 16 S io_testerDataMemAddress $end
 $var wire 1 T dataMemory $end
 $var wire 16 V _GEN_17 $end
 $var wire 1 X io_done $end
 $var wire 32 Z _GEN_11 $end
 $var wire 16 _ _GEN_14 $end
 $var wire 2 ` _GEN_0 $end
 $var wire 1 a _GEN_9 $end
 $var wire 1 c reset $end
  $scope module dataMemory $end
   $var wire 32 ! _GEN_11 $end
   $var wire 32 % io_testerDataWrite $end
   $var wire 1 + clock $end
   $var wire 1 / io_testerEnable $end
   $var wire 32 9 io_dataWrite $end
   $var wire 32 : io_dataRead $end
   $var wire 1 C io_testerWriteEnable $end
   $var wire 32 D _GEN_5 $end
   $var wire 16 L io_address $end
   $var wire 1 O io_writeEnable $end
   $var wire 16 W io_testerAddress $end
   $var wire 32 Y memory $end
   $var wire 32 ] io_testerDataRead $end
    $scope module memory $end
      $scope module _T_1 $end
       $var wire 16 # addr $end
       $var wire 16 * pipeline_addr_0 $end
       $var wire 1 1 en $end
       $var wire 32 < data $end
       $var wire 32 I pipeline_data_0 $end
       $var wire 1 U pipeline_valid_0 $end
       $var wire 1 \ valid $end
       $var wire 1 ^ mask $end
       $var wire 1 d clk $end
      $upscope $end
      $scope module _T $end
       $var wire 1 ' clk $end
       $var wire 16 K addr $end
       $var wire 1 N en $end
       $var wire 32 b data $end
      $upscope $end
      $scope module _T_3 $end
       $var wire 1 0 pipeline_valid_0 $end
       $var wire 1 2 en $end
       $var wire 1 4 mask $end
       $var wire 16 6 pipeline_addr_0 $end
       $var wire 16 B addr $end
       $var wire 1 J clk $end
       $var wire 32 R pipeline_data_0 $end
       $var wire 32 [ data $end
       $var wire 1 e valid $end
      $upscope $end
      $scope module _T_2 $end
       $var wire 1 7 clk $end
       $var wire 16 ; addr $end
       $var wire 32 H data $end
       $var wire 1 Q en $end
      $upscope $end
    $upscope $end
  $upscope $end
$upscope $end
$enddefinitions $end
$dumpvars
0X
0C
b00000000000000000000000000000000 Y
b00000000000000000000000000000000 D
b00000000000000000000000000000000 <
b0000000000000000 _
b00000000000000000000000000000000 [
b0000000000000000 B
b00000000000000000000000000000000 >
b00000000000000000000000000000000 !
0T
07
0N
b00000000000000000000000000000000 :
0e
0P
b0000000000000000 @
b00000000000000000000000000000000 I
b0000000000000000 #
b0000000000000000 W
0J
05
b00000000000000000000000000000000 .
b00000000000000000000000000000000 b
0a
b00 M
0/
b00 8
b0000000000000000 S
0c
b0000000000000000 K
b0000000000000000 6
01
0)
0+
b0000000000000000 G
b00 `
b0000000000000000 *
b00 &
b00000000000000000000000000000000 Z
0'
b00 =
14
b00000000000000000000000000000000 "
0U
b0000000000000000 (
b00000000000000000000000000000000 9
b00 $
0d
0O
02
b0000000000000000 V
0Q
b00000000000000000000000000000000 R
1^
b0000000000000000 ;
b0000000000000000 3
0E
00
0\
b0000000000000000 L
b00000000000000000000000000000000 ]
b00000000000000000000000000000000 H
0?
b0000000000000000 F
0A
0,
b00000000000000000000000000000000 -
b00000000000000000000000000000000 %
$end
#0
1c
1Q
1)
#1
1d
1J
1'
1+
17
1P
#6
0d
0J
0'
0+
07
0P
#11
1d
1J
1'
1+
17
1P
#16
0d
0J
0'
0+
07
0P
#21
1d
1J
1'
1+
17
1P
#26
0d
0J
0'
0+
07
0P
#31
1d
1J
1'
1+
17
1P
#36
0d
0J
0'
0+
07
0P
#41
1d
1J
1'
1+
17
1P
#46
0Q
1C
0J
0'
1E
07
1/
1\
0c
1N
11
0d
0+
0P
1,
#51
1U
1d
1J
1'
1+
17
1P
#56
0d
0J
b0000000000000001 #
b0000000000000001 S
b0000000000000001 K
0'
b0000000000000001 W
0+
07
0P
#61
1d
1J
b0000000000000001 *
1'
1+
17
1P
#66
0d
0J
b0000000000000010 #
b0000000000000010 S
b0000000000000010 K
0'
b0000000000000010 W
0+
07
0P
#71
1d
1J
b0000000000000010 *
1'
1+
17
1P
#76
0d
0J
b0000000000000011 #
b0000000000000011 S
b0000000000000011 K
0'
b0000000000000011 W
0+
07
0P
#81
1d
1J
b0000000000000011 *
1'
1+
17
1P
#86
0d
0J
b0000000000000100 #
b0000000000000100 S
b0000000000000100 K
0'
b0000000000000100 W
0+
07
0P
#91
1d
1J
b0000000000000100 *
1'
1+
17
1P
#96
0d
0J
b0000000000000101 #
b0000000000000101 S
b0000000000000101 K
0'
b0000000000000101 W
0+
07
0P
#101
1d
1J
b0000000000000101 *
1'
1+
17
1P
#106
0d
0J
b0000000000000110 #
b0000000000000110 S
b0000000000000110 K
0'
b0000000000000110 W
0+
07
0P
#111
1d
1J
b0000000000000110 *
1'
1+
17
1P
#116
0d
0J
b0000000000000111 #
b0000000000000111 S
b0000000000000111 K
0'
b0000000000000111 W
0+
07
0P
#121
1d
1J
b0000000000000111 *
1'
1+
17
1P
#126
0d
0J
b0000000000001000 #
b0000000000001000 S
b0000000000001000 K
0'
b0000000000001000 W
0+
07
0P
#131
1d
1J
b0000000000001000 *
1'
1+
17
1P
#136
0d
0J
b0000000000001001 #
b0000000000001001 S
b0000000000001001 K
0'
b0000000000001001 W
0+
07
0P
#141
1d
1J
b0000000000001001 *
1'
1+
17
1P
#146
0d
0J
b0000000000001010 #
b0000000000001010 S
b0000000000001010 K
0'
b0000000000001010 W
0+
07
0P
#151
1d
1J
b0000000000001010 *
1'
1+
17
1P
#156
0d
0J
b0000000000001011 #
b0000000000001011 S
b0000000000001011 K
0'
b0000000000001011 W
0+
07
0P
#161
1d
1J
b0000000000001011 *
1'
1+
17
1P
#166
0d
0J
b0000000000001100 #
b0000000000001100 S
b0000000000001100 K
0'
b0000000000001100 W
0+
07
0P
#171
1d
1J
b0000000000001100 *
1'
1+
17
1P
#176
0d
0J
b0000000000001101 #
b0000000000001101 S
b0000000000001101 K
0'
b0000000000001101 W
0+
07
0P
#181
1d
1J
b0000000000001101 *
1'
1+
17
1P
#186
0d
0J
b0000000000001110 #
b0000000000001110 S
b0000000000001110 K
0'
b0000000000001110 W
0+
07
0P
#191
1d
1J
b0000000000001110 *
1'
1+
17
1P
#196
0d
0J
b0000000000001111 #
b0000000000001111 S
b0000000000001111 K
0'
b0000000000001111 W
0+
07
0P
#201
1d
1J
b0000000000001111 *
1'
1+
17
1P
#206
0d
0J
b0000000000010000 #
b0000000000010000 S
b0000000000010000 K
0'
b0000000000010000 W
0+
07
0P
#211
1d
1J
b0000000000010000 *
1'
1+
17
1P
#216
0d
0J
b0000000000010001 #
b0000000000010001 S
b0000000000010001 K
0'
b0000000000010001 W
0+
07
0P
#221
1d
1J
b0000000000010001 *
1'
1+
17
1P
#226
0d
0J
b0000000000010010 #
b0000000000010010 S
b0000000000010010 K
0'
b0000000000010010 W
0+
07
0P
#231
1d
1J
b0000000000010010 *
1'
1+
17
1P
#236
0d
0J
b0000000000010011 #
b0000000000010011 S
b0000000000010011 K
0'
b0000000000010011 W
0+
07
0P
#241
1d
1J
b0000000000010011 *
1'
1+
17
1P
#246
0d
0J
b0000000000010100 #
b0000000000010100 S
b0000000000010100 K
0'
b0000000000010100 W
0+
07
0P
#251
1d
1J
b0000000000010100 *
1'
1+
17
1P
#256
0d
0J
b0000000000010101 #
b0000000000010101 S
b0000000000010101 K
0'
b0000000000010101 W
0+
07
0P
#261
1d
1J
b0000000000010101 *
1'
1+
17
1P
#266
0d
0J
b0000000000010110 #
b0000000000010110 S
b0000000000010110 K
0'
b0000000000010110 W
0+
07
0P
#271
1d
1J
b0000000000010110 *
1'
1+
17
1P
#276
0d
0J
b0000000000010111 #
b0000000000010111 S
b0000000000010111 K
0'
b0000000000010111 W
0+
07
0P
#281
1d
1J
b0000000000010111 *
1'
1+
17
1P
#286
0d
0J
b0000000000011000 #
b0000000000011000 S
b0000000000011000 K
0'
b0000000000011000 W
0+
07
0P
#291
1d
1J
b0000000000011000 *
1'
1+
17
1P
#296
0d
0J
b0000000000011001 #
b0000000000011001 S
b0000000000011001 K
0'
b0000000000011001 W
0+
07
0P
#301
1d
1J
b0000000000011001 *
1'
1+
17
1P
#306
0d
0J
b0000000000011010 #
b0000000000011010 S
b0000000000011010 K
0'
b0000000000011010 W
0+
07
0P
#311
1d
1J
b0000000000011010 *
1'
1+
17
1P
#316
0d
0J
b0000000000011011 #
b0000000000011011 S
b0000000000011011 K
0'
b0000000000011011 W
0+
07
0P
#321
1d
1J
b0000000000011011 *
1'
1+
17
1P
#326
0d
0J
b0000000000011100 #
b0000000000011100 S
b0000000000011100 K
0'
b0000000000011100 W
0+
07
0P
#331
1d
1J
b0000000000011100 *
1'
1+
17
1P
#336
0d
0J
b0000000000011101 #
b0000000000011101 S
b0000000000011101 K
0'
b0000000000011101 W
0+
07
0P
#341
1d
1J
b0000000000011101 *
1'
1+
17
1P
#346
0d
0J
b0000000000011110 #
b0000000000011110 S
b0000000000011110 K
0'
b0000000000011110 W
0+
07
0P
#351
1d
1J
b0000000000011110 *
1'
1+
17
1P
#356
0d
0J
b0000000000011111 #
b0000000000011111 S
b0000000000011111 K
0'
b0000000000011111 W
0+
07
0P
#361
1d
1J
b0000000000011111 *
1'
1+
17
1P
#366
0d
0J
b0000000000100000 #
b0000000000100000 S
b0000000000100000 K
0'
b0000000000100000 W
0+
07
0P
#371
1d
1J
b0000000000100000 *
1'
1+
17
1P
#376
0d
0J
b0000000000100001 #
b0000000000100001 S
b0000000000100001 K
0'
b0000000000100001 W
0+
07
0P
#381
1d
1J
b0000000000100001 *
1'
1+
17
1P
#386
0d
0J
b0000000000100010 #
b0000000000100010 S
b0000000000100010 K
0'
b0000000000100010 W
0+
07
0P
#391
1d
1J
b0000000000100010 *
1'
1+
17
1P
#396
0d
0J
b0000000000100011 #
b0000000000100011 S
b0000000000100011 K
0'
b0000000000100011 W
0+
07
0P
#401
1d
1J
b0000000000100011 *
1'
1+
17
1P
#406
0d
0J
b0000000000100100 #
b0000000000100100 S
b0000000000100100 K
0'
b0000000000100100 W
0+
07
0P
#411
1d
1J
b0000000000100100 *
1'
1+
17
1P
#416
0d
0J
b0000000000100101 #
b0000000000100101 S
b0000000000100101 K
0'
b0000000000100101 W
0+
07
0P
#421
1d
1J
b0000000000100101 *
1'
1+
17
1P
#426
0d
0J
b0000000000100110 #
b0000000000100110 S
b0000000000100110 K
0'
b0000000000100110 W
0+
07
0P
#431
1d
1J
b0000000000100110 *
1'
1+
17
1P
#436
0d
0J
b0000000000100111 #
b0000000000100111 S
b0000000000100111 K
0'
b0000000000100111 W
0+
07
0P
#441
1d
1J
b0000000000100111 *
1'
1+
17
1P
#446
0d
0J
b0000000000101000 #
b0000000000101000 S
b0000000000101000 K
0'
b0000000000101000 W
0+
07
0P
#451
1d
1J
b0000000000101000 *
1'
1+
17
1P
#456
0d
0J
b0000000000101001 #
b0000000000101001 S
b0000000000101001 K
0'
b0000000000101001 W
0+
07
0P
#461
1d
1J
b0000000000101001 *
1'
1+
17
1P
#466
0d
0J
b0000000000101010 #
b0000000000101010 S
b0000000000101010 K
0'
b0000000000101010 W
0+
07
0P
#471
1d
1J
b0000000000101010 *
1'
1+
17
1P
#476
0d
0J
b0000000000101011 #
b0000000000101011 S
b0000000000101011 K
0'
b0000000000101011 W
0+
07
0P
#481
1d
1J
b0000000000101011 *
1'
1+
17
1P
#486
0d
0J
b0000000000101100 #
b0000000000101100 S
b0000000000101100 K
0'
b0000000000101100 W
0+
07
0P
#491
1d
1J
b0000000000101100 *
1'
1+
17
1P
#496
0d
0J
b0000000000101101 #
b0000000000101101 S
b0000000000101101 K
0'
b0000000000101101 W
0+
07
0P
#501
1d
1J
b0000000000101101 *
1'
1+
17
1P
#506
0d
0J
b0000000000101110 #
b0000000000101110 S
b0000000000101110 K
0'
b0000000000101110 W
0+
07
0P
#511
1d
1J
b0000000000101110 *
1'
1+
17
1P
#516
0d
0J
b0000000000101111 #
b0000000000101111 S
b0000000000101111 K
0'
b0000000000101111 W
0+
07
0P
#521
1d
1J
b0000000000101111 *
1'
1+
17
1P
#526
0d
0J
b0000000000110000 #
b0000000000110000 S
b0000000000110000 K
0'
b0000000000110000 W
0+
07
0P
#531
1d
1J
b0000000000110000 *
1'
1+
17
1P
#536
0d
0J
b0000000000110001 #
b0000000000110001 S
b0000000000110001 K
0'
b0000000000110001 W
0+
07
0P
#541
1d
1J
b0000000000110001 *
1'
1+
17
1P
#546
0d
0J
b0000000000110010 #
b0000000000110010 S
b0000000000110010 K
0'
b0000000000110010 W
0+
07
0P
#551
1d
1J
b0000000000110010 *
1'
1+
17
1P
#556
0d
0J
b0000000000110011 #
b0000000000110011 S
b0000000000110011 K
0'
b0000000000110011 W
0+
07
0P
#561
1d
1J
b0000000000110011 *
1'
1+
17
1P
#566
0d
0J
b0000000000110100 #
b0000000000110100 S
b0000000000110100 K
0'
b0000000000110100 W
0+
07
0P
#571
1d
1J
b0000000000110100 *
1'
1+
17
1P
#576
0d
0J
b0000000000110101 #
b0000000000110101 S
b0000000000110101 K
0'
b0000000000110101 W
0+
07
0P
#581
1d
1J
b0000000000110101 *
1'
1+
17
1P
#586
0d
0J
b0000000000110110 #
b0000000000110110 S
b0000000000110110 K
0'
b0000000000110110 W
0+
07
0P
#591
1d
1J
b0000000000110110 *
1'
1+
17
1P
#596
0d
0J
b0000000000110111 #
b0000000000110111 S
b0000000000110111 K
0'
b0000000000110111 W
0+
07
0P
#601
1d
1J
b0000000000110111 *
1'
1+
17
1P
#606
0d
0J
b0000000000111000 #
b0000000000111000 S
b0000000000111000 K
0'
b0000000000111000 W
0+
07
0P
#611
1d
1J
b0000000000111000 *
1'
1+
17
1P
#616
0d
0J
b0000000000111001 #
b0000000000111001 S
b0000000000111001 K
0'
b0000000000111001 W
0+
07
0P
#621
1d
1J
b0000000000111001 *
1'
1+
17
1P
#626
0d
0J
b0000000000111010 #
b0000000000111010 S
b0000000000111010 K
0'
b0000000000111010 W
0+
07
0P
#631
1d
1J
b0000000000111010 *
1'
1+
17
1P
#636
0d
0J
b0000000000111011 #
b0000000000111011 S
b0000000000111011 K
0'
b0000000000111011 W
0+
07
0P
#641
1d
1J
b0000000000111011 *
1'
1+
17
1P
#646
0d
0J
b0000000000111100 #
b0000000000111100 S
b0000000000111100 K
0'
b0000000000111100 W
0+
07
0P
#651
1d
1J
b0000000000111100 *
1'
1+
17
1P
#656
0d
0J
b0000000000111101 #
b0000000000111101 S
b0000000000111101 K
0'
b0000000000111101 W
0+
07
0P
#661
1d
1J
b0000000000111101 *
1'
1+
17
1P
#666
0d
0J
b0000000000111110 #
b0000000000111110 S
b0000000000111110 K
0'
b0000000000111110 W
0+
07
0P
#671
1d
1J
b0000000000111110 *
1'
1+
17
1P
#676
0d
0J
b0000000000111111 #
b0000000000111111 S
b0000000000111111 K
0'
b0000000000111111 W
0+
07
0P
#681
1d
1J
b0000000000111111 *
1'
1+
17
1P
#686
0d
0J
b0000000001000000 #
b0000000001000000 S
b0000000001000000 K
0'
b0000000001000000 W
0+
07
0P
#691
1d
1J
b0000000001000000 *
1'
1+
17
1P
#696
0d
0J
b0000000001000001 #
b0000000001000001 S
b0000000001000001 K
0'
b0000000001000001 W
0+
07
0P
#701
1d
1J
b0000000001000001 *
1'
1+
17
1P
#706
0d
0J
b0000000001000010 #
b0000000001000010 S
b0000000001000010 K
0'
b0000000001000010 W
0+
07
0P
#711
1d
1J
b0000000001000010 *
1'
1+
17
1P
#716
0d
0J
b0000000001000011 #
b0000000001000011 S
b0000000001000011 K
0'
b0000000001000011 W
0+
07
0P
#721
1d
1J
b0000000001000011 *
1'
1+
17
1P
#726
0d
0J
b0000000001000100 #
b0000000001000100 S
b0000000001000100 K
0'
b0000000001000100 W
0+
07
0P
#731
1d
1J
b0000000001000100 *
1'
1+
17
1P
#736
0d
0J
b0000000001000101 #
b0000000001000101 S
b0000000001000101 K
0'
b0000000001000101 W
0+
07
0P
#741
1d
1J
b0000000001000101 *
1'
1+
17
1P
#746
0d
0J
b0000000001000110 #
b0000000001000110 S
b0000000001000110 K
0'
b0000000001000110 W
0+
07
0P
#751
1d
1J
b0000000001000110 *
1'
1+
17
1P
#756
0d
0J
b0000000001000111 #
b0000000001000111 S
b0000000001000111 K
0'
b0000000001000111 W
0+
07
0P
#761
1d
1J
b0000000001000111 *
1'
1+
17
1P
#766
0d
0J
b0000000001001000 #
b0000000001001000 S
b0000000001001000 K
0'
b0000000001001000 W
0+
07
0P
#771
1d
1J
b0000000001001000 *
1'
1+
17
1P
#776
0d
0J
b0000000001001001 #
b0000000001001001 S
b0000000001001001 K
0'
b0000000001001001 W
0+
07
0P
#781
1d
1J
b0000000001001001 *
1'
1+
17
1P
#786
0d
0J
b0000000001001010 #
b0000000001001010 S
b0000000001001010 K
0'
b0000000001001010 W
0+
07
0P
#791
1d
1J
b0000000001001010 *
1'
1+
17
1P
#796
0d
0J
b0000000001001011 #
b0000000001001011 S
b0000000001001011 K
0'
b0000000001001011 W
0+
07
0P
#801
1d
1J
b0000000001001011 *
1'
1+
17
1P
#806
0d
0J
b0000000001001100 #
b0000000001001100 S
b0000000001001100 K
0'
b0000000001001100 W
0+
07
0P
#811
1d
1J
b0000000001001100 *
1'
1+
17
1P
#816
0d
0J
b0000000001001101 #
b0000000001001101 S
b0000000001001101 K
0'
b0000000001001101 W
0+
07
0P
#821
1d
1J
b0000000001001101 *
1'
1+
17
1P
#826
0d
0J
b0000000001001110 #
b0000000001001110 S
b0000000001001110 K
0'
b0000000001001110 W
0+
07
0P
#831
1d
1J
b0000000001001110 *
1'
1+
17
1P
#836
0d
0J
b0000000001001111 #
b0000000001001111 S
b0000000001001111 K
0'
b0000000001001111 W
0+
07
0P
#841
1d
1J
b0000000001001111 *
1'
1+
17
1P
#846
0d
0J
b0000000001010000 #
b0000000001010000 S
b0000000001010000 K
0'
b0000000001010000 W
0+
07
0P
#851
1d
1J
b0000000001010000 *
1'
1+
17
1P
#856
0d
0J
b0000000001010001 #
b0000000001010001 S
b0000000001010001 K
0'
b0000000001010001 W
0+
07
0P
#861
1d
1J
b0000000001010001 *
1'
1+
17
1P
#866
0d
0J
b0000000001010010 #
b0000000001010010 S
b0000000001010010 K
0'
b0000000001010010 W
0+
07
0P
#871
1d
1J
b0000000001010010 *
1'
1+
17
1P
#876
0d
0J
b0000000001010011 #
b0000000001010011 S
b0000000001010011 K
0'
b0000000001010011 W
0+
07
0P
#881
1d
1J
b0000000001010011 *
1'
1+
17
1P
#886
0d
0J
b0000000001010100 #
b0000000001010100 S
b0000000001010100 K
0'
b0000000001010100 W
0+
07
0P
#891
1d
1J
b0000000001010100 *
1'
1+
17
1P
#896
0d
0J
b0000000001010101 #
b0000000001010101 S
b0000000001010101 K
0'
b0000000001010101 W
0+
07
0P
#901
1d
1J
b0000000001010101 *
1'
1+
17
1P
#906
0d
0J
b0000000001010110 #
b0000000001010110 S
b0000000001010110 K
0'
b0000000001010110 W
0+
07
0P
#911
1d
1J
b0000000001010110 *
1'
1+
17
1P
#916
0d
0J
b0000000001010111 #
b0000000001010111 S
b0000000001010111 K
0'
b0000000001010111 W
0+
07
0P
#921
1d
1J
b0000000001010111 *
1'
1+
17
1P
#926
0d
0J
b0000000001011000 #
b0000000001011000 S
b0000000001011000 K
0'
b0000000001011000 W
0+
07
0P
#931
1d
1J
b0000000001011000 *
1'
1+
17
1P
#936
0d
0J
b0000000001011001 #
b0000000001011001 S
b0000000001011001 K
0'
b0000000001011001 W
0+
07
0P
#941
1d
1J
b0000000001011001 *
1'
1+
17
1P
#946
0d
0J
b0000000001011010 #
b0000000001011010 S
b0000000001011010 K
0'
b0000000001011010 W
0+
07
0P
#951
1d
1J
b0000000001011010 *
1'
1+
17
1P
#956
0d
0J
b0000000001011011 #
b0000000001011011 S
b0000000001011011 K
0'
b0000000001011011 W
0+
07
0P
#961
1d
1J
b0000000001011011 *
1'
1+
17
1P
#966
0d
0J
b0000000001011100 #
b0000000001011100 S
b0000000001011100 K
0'
b0000000001011100 W
0+
07
0P
#971
1d
1J
b0000000001011100 *
1'
1+
17
1P
#976
0d
0J
b0000000001011101 #
b0000000001011101 S
b0000000001011101 K
0'
b0000000001011101 W
0+
07
0P
#981
1d
1J
b0000000001011101 *
1'
1+
17
1P
#986
0d
0J
b0000000001011110 #
b0000000001011110 S
b0000000001011110 K
0'
b0000000001011110 W
0+
07
0P
#991
1d
1J
b0000000001011110 *
1'
1+
17
1P
#996
b00000000000000000000000011111111 <
b00000000000000000000000011111111 %
0J
b00000000000000000000000011111111 D
b0000000001011111 S
b0000000001011111 K
0'
07
b00000000000000000000000011111111 >
b00000000000000000000000011111111 "
0d
b0000000001011111 #
b00000000000000000000000011111111 ]
b0000000001011111 W
0+
0P
#1001
1d
1J
b0000000001011111 *
1'
1+
b00000000000000000000000011111111 I
17
1P
b00000000000000000000000011111111 b
#1006
b00000000000000000000000000000000 <
b00000000000000000000000000000000 %
0J
b00000000000000000000000000000000 D
b0000000001100000 S
b0000000001100000 K
0'
07
b00000000000000000000000000000000 >
b00000000000000000000000000000000 b
b00000000000000000000000000000000 "
0d
b0000000001100000 #
b00000000000000000000000000000000 ]
b0000000001100000 W
0+
0P
#1011
1d
1J
b0000000001100000 *
1'
1+
b00000000000000000000000000000000 I
17
1P
#1016
0d
0J
b0000000001100001 #
b0000000001100001 S
b0000000001100001 K
0'
b0000000001100001 W
0+
07
0P
#1021
1d
1J
b0000000001100001 *
1'
1+
17
1P
#1026
0d
0J
b0000000001100010 #
b0000000001100010 S
b0000000001100010 K
0'
b0000000001100010 W
0+
07
0P
#1031
1d
1J
b0000000001100010 *
1'
1+
17
1P
#1036
0d
0J
b0000000001100011 #
b0000000001100011 S
b0000000001100011 K
0'
b0000000001100011 W
0+
07
0P
#1041
1d
1J
b0000000001100011 *
1'
1+
17
1P
#1046
0d
0J
b0000000001100100 #
b0000000001100100 S
b0000000001100100 K
0'
b0000000001100100 W
0+
07
0P
#1051
1d
1J
b0000000001100100 *
1'
1+
17
1P
#1056
0d
0J
b0000000001100101 #
b0000000001100101 S
b0000000001100101 K
0'
b0000000001100101 W
0+
07
0P
#1061
1d
1J
b0000000001100101 *
1'
1+
17
1P
#1066
0d
0J
b0000000001100110 #
b0000000001100110 S
b0000000001100110 K
0'
b0000000001100110 W
0+
07
0P
#1071
1d
1J
b0000000001100110 *
1'
1+
17
1P
#1076
0d
0J
b0000000001100111 #
b0000000001100111 S
b0000000001100111 K
0'
b0000000001100111 W
0+
07
0P
#1081
1d
1J
b0000000001100111 *
1'
1+
17
1P
#1086
b00000000000000000000000011111111 <
b00000000000000000000000011111111 %
0J
b00000000000000000000000011111111 D
b0000000001101000 S
b0000000001101000 K
0'
07
b00000000000000000000000011111111 >
b00000000000000000000000011111111 "
0d
b0000000001101000 #
b00000000000000000000000011111111 ]
b0000000001101000 W
0+
0P
#1091
1d
1J
b0000000001101000 *
1'
1+
b00000000000000000000000011111111 I
17
1P
b00000000000000000000000011111111 b
#1096
b00000000000000000000000000000000 <
b00000000000000000000000000000000 %
0J
b00000000000000000000000000000000 D
b0000000001101001 S
b0000000001101001 K
0'
07
b00000000000000000000000000000000 >
b00000000000000000000000000000000 b
b00000000000000000000000000000000 "
0d
b0000000001101001 #
b00000000000000000000000000000000 ]
b0000000001101001 W
0+
0P
#1101
1d
1J
b0000000001101001 *
1'
1+
b00000000000000000000000000000000 I
17
1P
#1106
0d
0J
b0000000001101010 #
b0000000001101010 S
b0000000001101010 K
0'
b0000000001101010 W
0+
07
0P
#1111
1d
1J
b0000000001101010 *
1'
1+
17
1P
#1116
0d
0J
b0000000001101011 #
b0000000001101011 S
b0000000001101011 K
0'
b0000000001101011 W
0+
07
0P
#1121
1d
1J
b0000000001101011 *
1'
1+
17
1P
#1126
0d
0J
b0000000001101100 #
b0000000001101100 S
b0000000001101100 K
0'
b0000000001101100 W
0+
07
0P
#1131
1d
1J
b0000000001101100 *
1'
1+
17
1P
#1136
0d
0J
b0000000001101101 #
b0000000001101101 S
b0000000001101101 K
0'
b0000000001101101 W
0+
07
0P
#1141
1d
1J
b0000000001101101 *
1'
1+
17
1P
#1146
0d
0J
b0000000001101110 #
b0000000001101110 S
b0000000001101110 K
0'
b0000000001101110 W
0+
07
0P
#1151
1d
1J
b0000000001101110 *
1'
1+
17
1P
#1156
0d
0J
b0000000001101111 #
b0000000001101111 S
b0000000001101111 K
0'
b0000000001101111 W
0+
07
0P
#1161
1d
1J
b0000000001101111 *
1'
1+
17
1P
#1166
0d
0J
b0000000001110000 #
b0000000001110000 S
b0000000001110000 K
0'
b0000000001110000 W
0+
07
0P
#1171
1d
1J
b0000000001110000 *
1'
1+
17
1P
#1176
0d
0J
b0000000001110001 #
b0000000001110001 S
b0000000001110001 K
0'
b0000000001110001 W
0+
07
0P
#1181
1d
1J
b0000000001110001 *
1'
1+
17
1P
#1186
b00000000000000000000000011111111 <
b00000000000000000000000011111111 %
0J
b00000000000000000000000011111111 D
b0000000001110010 S
b0000000001110010 K
0'
07
b00000000000000000000000011111111 >
b00000000000000000000000011111111 "
0d
b0000000001110010 #
b00000000000000000000000011111111 ]
b0000000001110010 W
0+
0P
#1191
1d
1J
b0000000001110010 *
1'
1+
b00000000000000000000000011111111 I
17
1P
b00000000000000000000000011111111 b
#1196
0d
0J
b0000000001110011 #
b0000000001110011 S
b0000000001110011 K
0'
b0000000001110011 W
0+
07
0P
b00000000000000000000000000000000 b
#1201
1d
1J
b0000000001110011 *
1'
1+
17
1P
b00000000000000000000000011111111 b
#1206
0d
0J
b0000000001110100 #
b0000000001110100 S
b0000000001110100 K
0'
b0000000001110100 W
0+
07
0P
b00000000000000000000000000000000 b
#1211
1d
1J
b0000000001110100 *
1'
1+
17
1P
b00000000000000000000000011111111 b
#1216
b00000000000000000000000000000000 <
b00000000000000000000000000000000 %
0J
b00000000000000000000000000000000 D
b0000000001110101 S
b0000000001110101 K
0'
07
b00000000000000000000000000000000 >
b00000000000000000000000000000000 b
b00000000000000000000000000000000 "
0d
b0000000001110101 #
b00000000000000000000000000000000 ]
b0000000001110101 W
0+
0P
#1221
1d
1J
b0000000001110101 *
1'
1+
b00000000000000000000000000000000 I
17
1P
#1226
0d
0J
b0000000001110110 #
b0000000001110110 S
b0000000001110110 K
0'
b0000000001110110 W
0+
07
0P
#1231
1d
1J
b0000000001110110 *
1'
1+
17
1P
#1236
0d
0J
b0000000001110111 #
b0000000001110111 S
b0000000001110111 K
0'
b0000000001110111 W
0+
07
0P
#1241
1d
1J
b0000000001110111 *
1'
1+
17
1P
#1246
0d
0J
b0000000001111000 #
b0000000001111000 S
b0000000001111000 K
0'
b0000000001111000 W
0+
07
0P
#1251
1d
1J
b0000000001111000 *
1'
1+
17
1P
#1256
0d
0J
b0000000001111001 #
b0000000001111001 S
b0000000001111001 K
0'
b0000000001111001 W
0+
07
0P
#1261
1d
1J
b0000000001111001 *
1'
1+
17
1P
#1266
0d
0J
b0000000001111010 #
b0000000001111010 S
b0000000001111010 K
0'
b0000000001111010 W
0+
07
0P
#1271
1d
1J
b0000000001111010 *
1'
1+
17
1P
#1276
b00000000000000000000000011111111 <
b00000000000000000000000011111111 %
0J
b00000000000000000000000011111111 D
b0000000001111011 S
b0000000001111011 K
0'
07
b00000000000000000000000011111111 >
b00000000000000000000000011111111 "
0d
b0000000001111011 #
b00000000000000000000000011111111 ]
b0000000001111011 W
0+
0P
#1281
1d
1J
b0000000001111011 *
1'
1+
b00000000000000000000000011111111 I
17
1P
b00000000000000000000000011111111 b
#1286
0d
0J
b0000000001111100 #
b0000000001111100 S
b0000000001111100 K
0'
b0000000001111100 W
0+
07
0P
b00000000000000000000000000000000 b
#1291
1d
1J
b0000000001111100 *
1'
1+
17
1P
b00000000000000000000000011111111 b
#1296
0d
0J
b0000000001111101 #
b0000000001111101 S
b0000000001111101 K
0'
b0000000001111101 W
0+
07
0P
b00000000000000000000000000000000 b
#1301
1d
1J
b0000000001111101 *
1'
1+
17
1P
b00000000000000000000000011111111 b
#1306
b00000000000000000000000000000000 <
b00000000000000000000000000000000 %
0J
b00000000000000000000000000000000 D
b0000000001111110 S
b0000000001111110 K
0'
07
b00000000000000000000000000000000 >
b00000000000000000000000000000000 b
b00000000000000000000000000000000 "
0d
b0000000001111110 #
b00000000000000000000000000000000 ]
b0000000001111110 W
0+
0P
#1311
1d
1J
b0000000001111110 *
1'
1+
b00000000000000000000000000000000 I
17
1P
#1316
0d
0J
b0000000001111111 #
b0000000001111111 S
b0000000001111111 K
0'
b0000000001111111 W
0+
07
0P
#1321
1d
1J
b0000000001111111 *
1'
1+
17
1P
#1326
0d
0J
b0000000010000000 #
b0000000010000000 S
b0000000010000000 K
0'
b0000000010000000 W
0+
07
0P
#1331
1d
1J
b0000000010000000 *
1'
1+
17
1P
#1336
0d
0J
b0000000010000001 #
b0000000010000001 S
b0000000010000001 K
0'
b0000000010000001 W
0+
07
0P
