generated/SystemTop.vcd
$date
2021-11-17T13:04+0000
$end
$version
0.2
$end
$comment

$end
$timescale 1ns  $end
$scope module SystemTop $end
 $var wire 32 # io_testerDataMemDataRead $end
 $var wire 1 , io_testerDataMemWriteEnable $end
 $var wire 32 K io_testerDataMemDataWrite $end
 $var wire 1 L io_start $end
 $var wire 1 T io_testerDataMemEnable $end
 $var wire 1 f clock $end
 $var wire 1 p dataMemory $end
 $var wire 16 q io_testerDataMemAddress $end
 $var wire 1 t accelerator $end
 $var wire 1 y io_done $end
 $var wire 1 "1 reset $end
  $scope module dataMemory $end
   $var wire 32 " _GEN_11 $end
   $var wire 32 % io_testerDataWrite $end
   $var wire 1 + clock $end
   $var wire 1 - io_testerEnable $end
   $var wire 32 : io_dataRead $end
   $var wire 32 ; io_dataWrite $end
   $var wire 1 P io_testerWriteEnable $end
   $var wire 32 Q _GEN_5 $end
   $var wire 16 a io_address $end
   $var wire 1 c io_writeEnable $end
   $var wire 16 z io_testerAddress $end
   $var wire 32 { memory $end
   $var wire 32 ") io_testerDataRead $end
    $scope module memory $end
      $scope module _T_1 $end
       $var wire 16 $ addr $end
       $var wire 16 * pipeline_addr_0 $end
       $var wire 1 . en $end
       $var wire 32 H data $end
       $var wire 32 \ pipeline_data_0 $end
       $var wire 1 u pipeline_valid_0 $end
       $var wire 1 "" valid $end
       $var wire 1 "* mask $end
       $var wire 1 "4 clk $end
      $upscope $end
      $scope module _T $end
       $var wire 1 ( clk $end
       $var wire 16 ` addr $end
       $var wire 1 d en $end
       $var wire 32 "/ data $end
      $upscope $end
      $scope module _T_3 $end
       $var wire 1 / pipeline_valid_0 $end
       $var wire 1 1 en $end
       $var wire 1 2 mask $end
       $var wire 16 5 pipeline_addr_0 $end
       $var wire 16 N addr $end
       $var wire 1 _ clk $end
       $var wire 32 r pipeline_data_0 $end
       $var wire 32 } data $end
       $var wire 1 "= valid $end
      $upscope $end
      $scope module _T_2 $end
       $var wire 1 6 clk $end
       $var wire 16 < addr $end
       $var wire 32 Y data $end
       $var wire 1 l en $end
      $upscope $end
    $upscope $end
  $upscope $end
  $scope module accelerator $end
   $var wire 4 ! _GEN_2 $end
   $var wire 4 & _GEN_34 $end
   $var wire 4 ' _GEN_28 $end
   $var wire 4 ) _GEN_5 $end
   $var wire 5 0 yReg $end
   $var wire 5 3 _GEN_8 $end
   $var wire 10 4 _GEN_51 $end
   $var wire 1 7 _GEN_48 $end
   $var wire 5 8 _GEN_54 $end
   $var wire 10 9 _GEN_33 $end
   $var wire 10 = _GEN_60 $end
   $var wire 1 > _GEN_57 $end
   $var wire 10 ? _GEN_15 $end
   $var wire 1 @ _GEN_42 $end
   $var wire 1 A _GEN_36 $end
   $var wire 10 B _GEN_21 $end
   $var wire 1 C reset $end
   $var wire 1 D _GEN_30 $end
   $var wire 5 E _GEN_24 $end
   $var wire 5 F _GEN_7 $end
   $var wire 5 G _GEN_18 $end
   $var wire 10 I _GEN_45 $end
   $var wire 10 J _GEN_39 $end
   $var wire 10 M _GEN_27 $end
   $var wire 4 O _GEN_12 $end
   $var wire 4 R stateReg $end
   $var wire 5 S _GEN_1 $end
   $var wire 5 U _GEN_4 $end
   $var wire 1 V _T $end
   $var wire 8 W _GEN_62 $end
   $var wire 1 X _GEN_56 $end
   $var wire 1 Z _GEN_38 $end
   $var wire 1 [ _GEN_50 $end
   $var wire 1 ] _GEN_44 $end
   $var wire 5 ^ _GEN_59 $end
   $var wire 10 b _GEN_65 $end
   $var wire 1 e _GEN_32 $end
   $var wire 5 g _GEN_53 $end
   $var wire 8 h _GEN_47 $end
   $var wire 1 i io_done $end
   $var wire 4 j _GEN_11 $end
   $var wire 1 k _GEN_26 $end
   $var wire 8 m _GEN_35 $end
   $var wire 1 n io_writeEnable $end
   $var wire 8 o _GEN_41 $end
   $var wire 8 s _GEN_29 $end
   $var wire 1 v _GEN_20 $end
   $var wire 4 w _GEN_14 $end
   $var wire 5 x xReg $end
   $var wire 32 | io_dataWrite $end
   $var wire 1 ~ _GEN_23 $end
   $var wire 4 "! _GEN_6 $end
   $var wire 4 "# _GEN_9 $end
   $var wire 1 "$ clock $end
   $var wire 16 "% io_address $end
   $var wire 4 "& _GEN_0 $end
   $var wire 1 "' io_start $end
   $var wire 32 "( io_dataRead $end
   $var wire 5 "+ _GEN_61 $end
   $var wire 5 ", _GEN_49 $end
   $var wire 4 "- _GEN_40 $end
   $var wire 8 ". _GEN_55 $end
   $var wire 5 "0 _GEN_3 $end
   $var wire 5 "2 _GEN_43 $end
   $var wire 5 "3 _GEN_37 $end
   $var wire 4 "5 _GEN_58 $end
   $var wire 8 "6 _GEN_22 $end
   $var wire 5 "7 _GEN_31 $end
   $var wire 4 "8 _GEN_46 $end
   $var wire 4 "9 _GEN_52 $end
   $var wire 4 ": _GEN_10 $end
   $var wire 4 "; _GEN_25 $end
   $var wire 4 "< _GEN_19 $end
  $upscope $end
$upscope $end
$enddefinitions $end
$dumpvars
0X
0C
b00000000000000000000000000000000 Y
0""
b0000 '
b00000 g
0"1
b0000000000000000 a
b00000000000000000000000000000000 r
b00000000 s
b0000 O
b00000 "7
0V
b00000000000000000000000000000000 :
b00000000000000000000000000000000 Q
b0000000000 9
b00000000000000000000000000000000 }
b00000 "3
b00000000000000000000000000000000 K
0~
0L
b0000000000 =
0D
0/
0[
b0000 ":
b00000 S
1"*
0]
b0000 "<
b00000 U
0+
0@
b00000 8
b00000000000000000000000000000000 ;
b0000000000000000 *
b0000 "!
b0000 w
0v
b0000000000 B
b0000000000000000 `
0p
0>
06
0"4
b0000000000000000 q
0l
b00000 G
b0000 "&
b00000000000000000000000000000000 |
0f
12
b00000 ^
b00000000000000000000000000000000 "/
b0000000000000000 5
0"$
0(
b00000 "0
b0000000000 M
b0000 ";
b0000000000000000 N
0"=
b0000 "5
b00000000 ".
0u
b0000000000000000 z
b00000 ",
b0000000000 I
b00000 3
0Z
b0000 )
b0000 !
b0000 j
b0000000000 b
0i
0T
07
b00000000000000000000000000000000 #
0k
b00000 x
b0000000000 ?
b0000 "-
b00000 F
0e
0P
b00000000 o
0"'
0-
b0000000000000000 <
b00000000000000000000000000000000 "(
b0000 "#
0c
b00000000000000000000000000000000 \
b00000000 m
01
b00000000000000000000000000000000 {
0t
0_
b00000 "+
b0000 &
0n
b0000000000 J
b0000 "8
b00000000000000000000000000000000 "
b00000 E
b00000 0
0d
b0000000000000000 "%
b0000 R
b00000 "2
b0000000000000000 $
b00000000 "6
0.
b0000000000 4
b00000000000000000000000000000000 ")
b0000 "9
b00000000 W
0y
b00000000000000000000000000000000 H
0A
0,
b00000000 h
b00000000000000000000000000000000 %
$end
#0
b0111 ":
b0111 !
1C
b0111 "!
1V
1"1
1l
b0111 "#
b0111 O
b0111 j
b0111 )
#1
1f
1"$
1"4
16
1+
1(
1_
#6
0f
0"$
0"4
06
0+
0(
0_
#11
1f
1"$
1"4
16
1+
1(
1_
#16
0f
0"$
0"4
06
0+
0(
0_
#21
1f
1"$
1"4
16
1+
1(
1_
#26
0f
0"$
0"4
06
0+
0(
0_
#31
1f
1"$
1"4
16
1+
1(
1_
#36
0f
0"$
0"4
06
0+
0(
0_
#41
1f
1"$
1"4
16
1+
1(
1_
#46
0f
1-
0C
0"$
1.
0"4
06
0(
1T
1d
1""
0"1
0l
0+
1,
1P
0_
#51
1f
1u
1"$
1"4
16
1+
1(
1_
#56
0f
b0000000000000001 `
0"$
b0000000000000001 z
0"4
b0000000000000001 $
06
0+
0(
b0000000000000001 q
0_
#61
1f
1"$
1"4
b0000000000000001 *
16
1+
1(
1_
#66
0f
b0000000000000010 `
0"$
b0000000000000010 z
0"4
b0000000000000010 $
06
0+
0(
b0000000000000010 q
0_
#71
1f
1"$
1"4
b0000000000000010 *
16
1+
1(
1_
#76
0f
b0000000000000011 `
0"$
b0000000000000011 z
0"4
b0000000000000011 $
06
0+
0(
b0000000000000011 q
0_
#81
1f
1"$
1"4
b0000000000000011 *
16
1+
1(
1_
#86
0f
b0000000000000100 `
0"$
b0000000000000100 z
0"4
b0000000000000100 $
06
0+
0(
b0000000000000100 q
0_
#91
1f
1"$
1"4
b0000000000000100 *
16
1+
1(
1_
#96
0f
b0000000000000101 `
0"$
b0000000000000101 z
0"4
b0000000000000101 $
06
0+
0(
b0000000000000101 q
0_
#101
1f
1"$
1"4
b0000000000000101 *
16
1+
1(
1_
#106
0f
b0000000000000110 `
0"$
b0000000000000110 z
0"4
b0000000000000110 $
06
0+
0(
b0000000000000110 q
0_
#111
1f
1"$
1"4
b0000000000000110 *
16
1+
1(
1_
#116
0f
b0000000000000111 `
0"$
b0000000000000111 z
0"4
b0000000000000111 $
06
0+
0(
b0000000000000111 q
0_
#121
1f
1"$
1"4
b0000000000000111 *
16
1+
1(
1_
#126
0f
b0000000000001000 `
0"$
b0000000000001000 z
0"4
b0000000000001000 $
06
0+
0(
b0000000000001000 q
0_
#131
1f
1"$
1"4
b0000000000001000 *
16
1+
1(
1_
#136
0f
b0000000000001001 `
0"$
b0000000000001001 z
0"4
b0000000000001001 $
06
0+
0(
b0000000000001001 q
0_
#141
1f
1"$
1"4
b0000000000001001 *
16
1+
1(
1_
#146
0f
b0000000000001010 `
0"$
b0000000000001010 z
0"4
b0000000000001010 $
06
0+
0(
b0000000000001010 q
0_
#151
1f
1"$
1"4
b0000000000001010 *
16
1+
1(
1_
#156
0f
b0000000000001011 `
0"$
b0000000000001011 z
0"4
b0000000000001011 $
06
0+
0(
b0000000000001011 q
0_
#161
1f
1"$
1"4
b0000000000001011 *
16
1+
1(
1_
#166
0f
b0000000000001100 `
0"$
b0000000000001100 z
0"4
b0000000000001100 $
06
0+
0(
b0000000000001100 q
0_
#171
1f
1"$
1"4
b0000000000001100 *
16
1+
1(
1_
#176
0f
b0000000000001101 `
0"$
b0000000000001101 z
0"4
b0000000000001101 $
06
0+
0(
b0000000000001101 q
0_
#181
1f
1"$
1"4
b0000000000001101 *
16
1+
1(
1_
#186
0f
b0000000000001110 `
0"$
b0000000000001110 z
0"4
b0000000000001110 $
06
0+
0(
b0000000000001110 q
0_
#191
1f
1"$
1"4
b0000000000001110 *
16
1+
1(
1_
#196
0f
b0000000000001111 `
0"$
b0000000000001111 z
0"4
b0000000000001111 $
06
0+
0(
b0000000000001111 q
0_
#201
1f
1"$
1"4
b0000000000001111 *
16
1+
1(
1_
#206
0f
b0000000000010000 `
0"$
b0000000000010000 z
0"4
b0000000000010000 $
06
0+
0(
b0000000000010000 q
0_
#211
1f
1"$
1"4
b0000000000010000 *
16
1+
1(
1_
#216
0f
b0000000000010001 `
0"$
b0000000000010001 z
0"4
b0000000000010001 $
06
0+
0(
b0000000000010001 q
0_
#221
1f
1"$
1"4
b0000000000010001 *
16
1+
1(
1_
#226
0f
b0000000000010010 `
0"$
b0000000000010010 z
0"4
b0000000000010010 $
06
0+
0(
b0000000000010010 q
0_
#231
1f
1"$
1"4
b0000000000010010 *
16
1+
1(
1_
#236
0f
b0000000000010011 `
0"$
b0000000000010011 z
0"4
b0000000000010011 $
06
0+
0(
b0000000000010011 q
0_
#241
1f
1"$
1"4
b0000000000010011 *
16
1+
1(
1_
#246
0f
b0000000000010100 `
0"$
b0000000000010100 z
0"4
b0000000000010100 $
06
0+
0(
b0000000000010100 q
0_
#251
1f
1"$
1"4
b0000000000010100 *
16
1+
1(
1_
#256
0f
b0000000000010101 `
0"$
b0000000000010101 z
0"4
b0000000000010101 $
06
0+
0(
b0000000000010101 q
0_
#261
1f
1"$
1"4
b0000000000010101 *
16
1+
1(
1_
#266
0f
b0000000000010110 `
0"$
b0000000000010110 z
0"4
b0000000000010110 $
06
0+
0(
b0000000000010110 q
0_
#271
1f
1"$
1"4
b0000000000010110 *
16
1+
1(
1_
#276
0f
b0000000000010111 `
0"$
b0000000000010111 z
0"4
b0000000000010111 $
06
0+
0(
b0000000000010111 q
0_
#281
1f
1"$
1"4
b0000000000010111 *
16
1+
1(
1_
#286
0f
b0000000000011000 `
0"$
b0000000000011000 z
0"4
b0000000000011000 $
06
0+
0(
b0000000000011000 q
0_
#291
1f
1"$
1"4
b0000000000011000 *
16
1+
1(
1_
#296
0f
b0000000000011001 `
0"$
b0000000000011001 z
0"4
b0000000000011001 $
06
0+
0(
b0000000000011001 q
0_
#301
1f
1"$
1"4
b0000000000011001 *
16
1+
1(
1_
#306
0f
b0000000000011010 `
0"$
b0000000000011010 z
0"4
b0000000000011010 $
06
0+
0(
b0000000000011010 q
0_
#311
1f
1"$
1"4
b0000000000011010 *
16
1+
1(
1_
#316
0f
b0000000000011011 `
0"$
b0000000000011011 z
0"4
b0000000000011011 $
06
0+
0(
b0000000000011011 q
0_
#321
1f
1"$
1"4
b0000000000011011 *
16
1+
1(
1_
#326
0f
b0000000000011100 `
0"$
b0000000000011100 z
0"4
b0000000000011100 $
06
0+
0(
b0000000000011100 q
0_
#331
1f
1"$
1"4
b0000000000011100 *
16
1+
1(
1_
#336
0f
b0000000000011101 `
0"$
b0000000000011101 z
0"4
b0000000000011101 $
06
0+
0(
b0000000000011101 q
0_
#341
1f
1"$
1"4
b0000000000011101 *
16
1+
1(
1_
#346
0f
b0000000000011110 `
0"$
b0000000000011110 z
0"4
b0000000000011110 $
06
0+
0(
b0000000000011110 q
0_
#351
1f
1"$
1"4
b0000000000011110 *
16
1+
1(
1_
#356
0f
b0000000000011111 `
0"$
b0000000000011111 z
0"4
b0000000000011111 $
06
0+
0(
b0000000000011111 q
0_
#361
1f
1"$
1"4
b0000000000011111 *
16
1+
1(
1_
#366
0f
b0000000000100000 `
0"$
b0000000000100000 z
0"4
b0000000000100000 $
06
0+
0(
b0000000000100000 q
0_
#371
1f
1"$
1"4
b0000000000100000 *
16
1+
1(
1_
#376
0f
b0000000000100001 `
0"$
b0000000000100001 z
0"4
b0000000000100001 $
06
0+
0(
b0000000000100001 q
0_
#381
1f
1"$
1"4
b0000000000100001 *
16
1+
1(
1_
#386
0f
b0000000000100010 `
0"$
b0000000000100010 z
0"4
b0000000000100010 $
06
0+
0(
b0000000000100010 q
0_
#391
1f
1"$
1"4
b0000000000100010 *
16
1+
1(
1_
#396
0f
b0000000000100011 `
0"$
b0000000000100011 z
0"4
b0000000000100011 $
06
0+
0(
b0000000000100011 q
0_
#401
1f
1"$
1"4
b0000000000100011 *
16
1+
1(
1_
#406
0f
b0000000000100100 `
0"$
b0000000000100100 z
0"4
b0000000000100100 $
06
0+
0(
b0000000000100100 q
0_
#411
1f
1"$
1"4
b0000000000100100 *
16
1+
1(
1_
#416
0f
b0000000000100101 `
0"$
b0000000000100101 z
0"4
b0000000000100101 $
06
0+
0(
b0000000000100101 q
0_
#421
1f
1"$
1"4
b0000000000100101 *
16
1+
1(
1_
#426
0f
b0000000000100110 `
0"$
b0000000000100110 z
0"4
b0000000000100110 $
06
0+
0(
b0000000000100110 q
0_
#431
1f
1"$
1"4
b0000000000100110 *
16
1+
1(
1_
#436
0f
b0000000000100111 `
0"$
b0000000000100111 z
0"4
b0000000000100111 $
06
0+
0(
b0000000000100111 q
0_
#441
1f
1"$
1"4
b0000000000100111 *
16
1+
1(
1_
#446
0f
b0000000000101000 `
0"$
b0000000000101000 z
0"4
b0000000000101000 $
06
0+
0(
b0000000000101000 q
0_
#451
1f
1"$
1"4
b0000000000101000 *
16
1+
1(
1_
#456
0f
b0000000000101001 `
0"$
b0000000000101001 z
0"4
b0000000000101001 $
06
0+
0(
b0000000000101001 q
0_
#461
1f
1"$
1"4
b0000000000101001 *
16
1+
1(
1_
#466
0f
b0000000000101010 `
0"$
b0000000000101010 z
0"4
b0000000000101010 $
06
0+
0(
b0000000000101010 q
0_
#471
1f
1"$
1"4
b0000000000101010 *
16
1+
1(
1_
#476
0f
b0000000000101011 `
0"$
b0000000000101011 z
0"4
b0000000000101011 $
06
0+
0(
b0000000000101011 q
0_
#481
1f
1"$
1"4
b0000000000101011 *
16
1+
1(
1_
#486
0f
b0000000000101100 `
0"$
b0000000000101100 z
0"4
b0000000000101100 $
06
0+
0(
b0000000000101100 q
0_
#491
1f
1"$
1"4
b0000000000101100 *
16
1+
1(
1_
#496
0f
b0000000000101101 `
0"$
b0000000000101101 z
0"4
b0000000000101101 $
06
0+
0(
b0000000000101101 q
0_
#501
1f
1"$
1"4
b0000000000101101 *
16
1+
1(
1_
#506
0f
b0000000000101110 `
0"$
b0000000000101110 z
0"4
b0000000000101110 $
06
0+
0(
b0000000000101110 q
0_
#511
1f
1"$
1"4
b0000000000101110 *
16
1+
1(
1_
#516
0f
b0000000000101111 `
0"$
b0000000000101111 z
0"4
b0000000000101111 $
06
0+
0(
b0000000000101111 q
0_
#521
1f
1"$
1"4
b0000000000101111 *
16
1+
1(
1_
#526
0f
b0000000000110000 `
0"$
b0000000000110000 z
0"4
b0000000000110000 $
06
0+
0(
b0000000000110000 q
0_
#531
1f
1"$
1"4
b0000000000110000 *
16
1+
1(
1_
#536
0f
b0000000000110001 `
0"$
b0000000000110001 z
0"4
b0000000000110001 $
06
0+
0(
b0000000000110001 q
0_
#541
1f
1"$
1"4
b0000000000110001 *
16
1+
1(
1_
#546
0f
b0000000000110010 `
0"$
b0000000000110010 z
0"4
b0000000000110010 $
06
0+
0(
b0000000000110010 q
0_
#551
1f
1"$
1"4
b0000000000110010 *
16
1+
1(
1_
#556
0f
b0000000000110011 `
0"$
b0000000000110011 z
0"4
b0000000000110011 $
06
0+
0(
b0000000000110011 q
0_
#561
1f
1"$
1"4
b0000000000110011 *
16
1+
1(
1_
#566
0f
b0000000000110100 `
0"$
b0000000000110100 z
0"4
b0000000000110100 $
06
0+
0(
b0000000000110100 q
0_
#571
1f
1"$
1"4
b0000000000110100 *
16
1+
1(
1_
#576
0f
b0000000000110101 `
0"$
b0000000000110101 z
0"4
b0000000000110101 $
06
0+
0(
b0000000000110101 q
0_
#581
1f
1"$
1"4
b0000000000110101 *
16
1+
1(
1_
#586
0f
b0000000000110110 `
0"$
b0000000000110110 z
0"4
b0000000000110110 $
06
0+
0(
b0000000000110110 q
0_
#591
1f
1"$
1"4
b0000000000110110 *
16
1+
1(
1_
#596
0f
b0000000000110111 `
0"$
b0000000000110111 z
0"4
b0000000000110111 $
06
0+
0(
b0000000000110111 q
0_
#601
1f
1"$
1"4
b0000000000110111 *
16
1+
1(
1_
#606
0f
b0000000000111000 `
0"$
b0000000000111000 z
0"4
b0000000000111000 $
06
0+
0(
b0000000000111000 q
0_
#611
1f
1"$
1"4
b0000000000111000 *
16
1+
1(
1_
#616
0f
b0000000000111001 `
0"$
b0000000000111001 z
0"4
b0000000000111001 $
06
0+
0(
b0000000000111001 q
0_
#621
1f
1"$
1"4
b0000000000111001 *
16
1+
1(
1_
#626
0f
b0000000000111010 `
0"$
b0000000000111010 z
0"4
b0000000000111010 $
06
0+
0(
b0000000000111010 q
0_
#631
1f
1"$
1"4
b0000000000111010 *
16
1+
1(
1_
#636
0f
b0000000000111011 `
0"$
b0000000000111011 z
0"4
b0000000000111011 $
06
0+
0(
b0000000000111011 q
0_
#641
1f
1"$
1"4
b0000000000111011 *
16
1+
1(
1_
#646
0f
b0000000000111100 `
0"$
b0000000000111100 z
0"4
b0000000000111100 $
06
0+
0(
b0000000000111100 q
0_
#651
1f
1"$
1"4
b0000000000111100 *
16
1+
1(
1_
#656
0f
b0000000000111101 `
0"$
b0000000000111101 z
0"4
b0000000000111101 $
06
0+
0(
b0000000000111101 q
0_
#661
1f
1"$
1"4
b0000000000111101 *
16
1+
1(
1_
#666
0f
b0000000000111110 `
0"$
b0000000000111110 z
0"4
b0000000000111110 $
06
0+
0(
b0000000000111110 q
0_
#671
1f
1"$
1"4
b0000000000111110 *
16
1+
1(
1_
#676
0f
b0000000000111111 `
0"$
b0000000000111111 z
0"4
b0000000000111111 $
06
0+
0(
b0000000000111111 q
0_
#681
1f
1"$
1"4
b0000000000111111 *
16
1+
1(
1_
#686
0f
b0000000001000000 `
0"$
b0000000001000000 z
0"4
b0000000001000000 $
06
0+
0(
b0000000001000000 q
0_
#691
1f
1"$
1"4
b0000000001000000 *
16
1+
1(
1_
#696
0f
b0000000001000001 `
0"$
b0000000001000001 z
0"4
b0000000001000001 $
06
0+
0(
b0000000001000001 q
0_
#701
1f
1"$
1"4
b0000000001000001 *
16
1+
1(
1_
#706
0f
b0000000001000010 `
0"$
b0000000001000010 z
0"4
b0000000001000010 $
06
0+
0(
b0000000001000010 q
0_
#711
1f
1"$
1"4
b0000000001000010 *
16
1+
1(
1_
#716
0f
b0000000001000011 `
0"$
b0000000001000011 z
0"4
b0000000001000011 $
06
0+
0(
b0000000001000011 q
0_
#721
1f
1"$
1"4
b0000000001000011 *
16
1+
1(
1_
#726
0f
b0000000001000100 `
0"$
b0000000001000100 z
0"4
b0000000001000100 $
06
0+
0(
b0000000001000100 q
0_
#731
1f
1"$
1"4
b0000000001000100 *
16
1+
1(
1_
#736
0f
b0000000001000101 `
0"$
b0000000001000101 z
0"4
b0000000001000101 $
06
0+
0(
b0000000001000101 q
0_
#741
1f
1"$
1"4
b0000000001000101 *
16
1+
1(
1_
#746
0f
b0000000001000110 `
0"$
b0000000001000110 z
0"4
b0000000001000110 $
06
0+
0(
b0000000001000110 q
0_
#751
1f
1"$
1"4
b0000000001000110 *
16
1+
1(
1_
#756
0f
b0000000001000111 `
0"$
b0000000001000111 z
0"4
b0000000001000111 $
06
0+
0(
b0000000001000111 q
0_
#761
1f
1"$
1"4
b0000000001000111 *
16
1+
1(
1_
#766
0f
b0000000001001000 `
0"$
b0000000001001000 z
0"4
b0000000001001000 $
06
0+
0(
b0000000001001000 q
0_
#771
1f
1"$
1"4
b0000000001001000 *
16
1+
1(
1_
#776
0f
b0000000001001001 `
0"$
b0000000001001001 z
0"4
b0000000001001001 $
06
0+
0(
b0000000001001001 q
0_
#781
1f
1"$
1"4
b0000000001001001 *
16
1+
1(
1_
#786
0f
b0000000001001010 `
0"$
b0000000001001010 z
0"4
b0000000001001010 $
06
0+
0(
b0000000001001010 q
0_
#791
1f
1"$
1"4
b0000000001001010 *
16
1+
1(
1_
#796
0f
b0000000001001011 `
0"$
b0000000001001011 z
0"4
b0000000001001011 $
06
0+
0(
b0000000001001011 q
0_
#801
1f
1"$
1"4
b0000000001001011 *
16
1+
1(
1_
#806
0f
b0000000001001100 `
0"$
b0000000001001100 z
0"4
b0000000001001100 $
06
0+
0(
b0000000001001100 q
0_
#811
1f
1"$
1"4
b0000000001001100 *
16
1+
1(
1_
#816
0f
b0000000001001101 `
0"$
b0000000001001101 z
0"4
b0000000001001101 $
06
0+
0(
b0000000001001101 q
0_
#821
1f
1"$
1"4
b0000000001001101 *
16
1+
1(
1_
#826
0f
b0000000001001110 `
0"$
b0000000001001110 z
0"4
b0000000001001110 $
06
0+
0(
b0000000001001110 q
0_
#831
1f
1"$
1"4
b0000000001001110 *
16
1+
1(
1_
#836
0f
b0000000001001111 `
0"$
b0000000001001111 z
0"4
b0000000001001111 $
06
0+
0(
b0000000001001111 q
0_
#841
1f
1"$
1"4
b0000000001001111 *
16
1+
1(
1_
#846
0f
b0000000001010000 `
0"$
b0000000001010000 z
0"4
b0000000001010000 $
06
0+
0(
b0000000001010000 q
0_
#851
1f
1"$
1"4
b0000000001010000 *
16
1+
1(
1_
#856
0f
b0000000001010001 `
0"$
b0000000001010001 z
0"4
b0000000001010001 $
06
0+
0(
b0000000001010001 q
0_
#861
1f
1"$
1"4
b0000000001010001 *
16
1+
1(
1_
#866
0f
b0000000001010010 `
0"$
b0000000001010010 z
0"4
b0000000001010010 $
06
0+
0(
b0000000001010010 q
0_
#871
1f
1"$
1"4
b0000000001010010 *
16
1+
1(
1_
#876
0f
b0000000001010011 `
0"$
b0000000001010011 z
0"4
b0000000001010011 $
06
0+
0(
b0000000001010011 q
0_
#881
1f
1"$
1"4
b0000000001010011 *
16
1+
1(
1_
#886
0f
b0000000001010100 `
0"$
b0000000001010100 z
0"4
b0000000001010100 $
06
0+
0(
b0000000001010100 q
0_
#891
1f
1"$
1"4
b0000000001010100 *
16
1+
1(
1_
#896
0f
b0000000001010101 `
0"$
b0000000001010101 z
0"4
b0000000001010101 $
06
0+
0(
b0000000001010101 q
0_
#901
1f
1"$
1"4
b0000000001010101 *
16
1+
1(
1_
#906
0f
b0000000001010110 `
0"$
b0000000001010110 z
0"4
b0000000001010110 $
06
0+
0(
b0000000001010110 q
0_
#911
1f
1"$
1"4
b0000000001010110 *
16
1+
1(
1_
#916
0f
b0000000001010111 `
0"$
b0000000001010111 z
0"4
b0000000001010111 $
06
0+
0(
b0000000001010111 q
0_
#921
1f
1"$
1"4
b0000000001010111 *
16
1+
1(
1_
#926
0f
b0000000001011000 `
0"$
b0000000001011000 z
0"4
b0000000001011000 $
06
0+
0(
b0000000001011000 q
0_
#931
1f
1"$
1"4
b0000000001011000 *
16
1+
1(
1_
#936
0f
b0000000001011001 `
0"$
b0000000001011001 z
0"4
b0000000001011001 $
06
0+
0(
b0000000001011001 q
0_
#941
1f
1"$
1"4
b0000000001011001 *
16
1+
1(
1_
#946
0f
b0000000001011010 `
0"$
b0000000001011010 z
0"4
b0000000001011010 $
06
0+
0(
b0000000001011010 q
0_
#951
1f
1"$
1"4
b0000000001011010 *
16
1+
1(
1_
#956
0f
b0000000001011011 `
0"$
b0000000001011011 z
0"4
b0000000001011011 $
06
0+
0(
b0000000001011011 q
0_
#961
1f
1"$
1"4
b0000000001011011 *
16
1+
1(
1_
#966
0f
b0000000001011100 `
0"$
b0000000001011100 z
0"4
b0000000001011100 $
06
0+
0(
b0000000001011100 q
0_
#971
1f
1"$
1"4
b0000000001011100 *
16
1+
1(
1_
#976
0f
b0000000001011101 `
0"$
b0000000001011101 z
0"4
b0000000001011101 $
06
0+
0(
b0000000001011101 q
0_
#981
1f
1"$
1"4
b0000000001011101 *
16
1+
1(
1_
#986
0f
b0000000001011110 `
0"$
b0000000001011110 z
0"4
b0000000001011110 $
06
0+
0(
b0000000001011110 q
0_
#991
1f
1"$
1"4
b0000000001011110 *
16
1+
1(
1_
#996
0f
b00000000000000000000000011111111 Q
b0000000001011111 `
b00000000000000000000000011111111 %
0"$
0"4
b00000000000000000000000011111111 K
06
0(
b0000000001011111 q
b00000000000000000000000011111111 #
b0000000001011111 z
b0000000001011111 $
b00000000000000000000000011111111 H
b00000000000000000000000011111111 ")
0+
0_
#1001
1f
b00000000000000000000000011111111 "/
1"$
1"4
b0000000001011111 *
16
1+
1(
1_
b00000000000000000000000011111111 \
#1006
0f
b00000000000000000000000000000000 Q
b0000000001100000 `
b00000000000000000000000000000000 %
0"$
0"4
b00000000000000000000000000000000 K
06
0(
b0000000001100000 q
b00000000000000000000000000000000 "/
b00000000000000000000000000000000 #
b0000000001100000 z
b0000000001100000 $
b00000000000000000000000000000000 H
b00000000000000000000000000000000 ")
0+
0_
#1011
1f
1"$
1"4
b0000000001100000 *
16
1+
1(
1_
b00000000000000000000000000000000 \
#1016
0f
b0000000001100001 `
0"$
b0000000001100001 z
0"4
b0000000001100001 $
06
0+
0(
b0000000001100001 q
0_
#1021
1f
1"$
1"4
b0000000001100001 *
16
1+
1(
1_
#1026
0f
b0000000001100010 `
0"$
b0000000001100010 z
0"4
b0000000001100010 $
06
0+
0(
b0000000001100010 q
0_
#1031
1f
1"$
1"4
b0000000001100010 *
16
1+
1(
1_
#1036
0f
b0000000001100011 `
0"$
b0000000001100011 z
0"4
b0000000001100011 $
06
0+
0(
b0000000001100011 q
0_
#1041
1f
1"$
1"4
b0000000001100011 *
16
1+
1(
1_
#1046
0f
b0000000001100100 `
0"$
b0000000001100100 z
0"4
b0000000001100100 $
06
0+
0(
b0000000001100100 q
0_
#1051
1f
1"$
1"4
b0000000001100100 *
16
1+
1(
1_
#1056
0f
b0000000001100101 `
0"$
b0000000001100101 z
0"4
b0000000001100101 $
06
0+
0(
b0000000001100101 q
0_
#1061
1f
1"$
1"4
b0000000001100101 *
16
1+
1(
1_
#1066
0f
b0000000001100110 `
0"$
b0000000001100110 z
0"4
b0000000001100110 $
06
0+
0(
b0000000001100110 q
0_
#1071
1f
1"$
1"4
b0000000001100110 *
16
1+
1(
1_
#1076
0f
b0000000001100111 `
0"$
b0000000001100111 z
0"4
b0000000001100111 $
06
0+
0(
b0000000001100111 q
0_
#1081
1f
1"$
1"4
b0000000001100111 *
16
1+
1(
1_
#1086
0f
b00000000000000000000000011111111 Q
b0000000001101000 `
b00000000000000000000000011111111 %
0"$
0"4
b00000000000000000000000011111111 K
06
0(
b0000000001101000 q
b00000000000000000000000011111111 #
b0000000001101000 z
b0000000001101000 $
b00000000000000000000000011111111 H
b00000000000000000000000011111111 ")
0+
0_
#1091
1f
b00000000000000000000000011111111 "/
1"$
1"4
b0000000001101000 *
16
1+
1(
1_
b00000000000000000000000011111111 \
#1096
0f
b00000000000000000000000000000000 Q
b0000000001101001 `
b00000000000000000000000000000000 %
0"$
0"4
b00000000000000000000000000000000 K
06
0(
b0000000001101001 q
b00000000000000000000000000000000 "/
b00000000000000000000000000000000 #
b0000000001101001 z
b0000000001101001 $
b00000000000000000000000000000000 H
b00000000000000000000000000000000 ")
0+
0_
#1101
1f
1"$
1"4
b0000000001101001 *
16
1+
1(
1_
b00000000000000000000000000000000 \
#1106
0f
b0000000001101010 `
0"$
b0000000001101010 z
0"4
b0000000001101010 $
06
0+
0(
b0000000001101010 q
0_
#1111
1f
1"$
1"4
b0000000001101010 *
16
1+
1(
1_
#1116
0f
b0000000001101011 `
0"$
b0000000001101011 z
0"4
b0000000001101011 $
06
0+
0(
b0000000001101011 q
0_
#1121
1f
1"$
1"4
b0000000001101011 *
16
1+
1(
1_
