generated/SystemTop.vcd
$date
2021-11-12T15:19+0000
$end
$version
0.2
$end
$comment

$end
$timescale 1ns  $end
$scope module SystemTop $end
 $var wire 32 # io_testerDataMemDataRead $end
 $var wire 1 . io_testerDataMemWriteEnable $end
 $var wire 32 Q io_testerDataMemDataWrite $end
 $var wire 1 R io_start $end
 $var wire 1 [ io_testerDataMemEnable $end
 $var wire 1 m clock $end
 $var wire 16 x io_testerDataMemAddress $end
 $var wire 1 y dataMemory $end
 $var wire 1 | accelerator $end
 $var wire 1 "$ io_done $end
 $var wire 1 "> reset $end
  $scope module dataMemory $end
   $var wire 32 ! _GEN_11 $end
   $var wire 32 & io_testerDataWrite $end
   $var wire 1 , clock $end
   $var wire 1 / io_testerEnable $end
   $var wire 32 ? io_dataRead $end
   $var wire 32 @ io_dataWrite $end
   $var wire 1 V io_testerWriteEnable $end
   $var wire 32 X _GEN_5 $end
   $var wire 16 i io_address $end
   $var wire 1 l io_writeEnable $end
   $var wire 16 "# io_testerAddress $end
   $var wire 32 "& memory $end
   $var wire 32 "2 io_testerDataRead $end
    $scope module memory $end
      $scope module _T_1 $end
       $var wire 16 % addr $end
       $var wire 16 + pipeline_addr_0 $end
       $var wire 1 2 en $end
       $var wire 32 N data $end
       $var wire 32 c pipeline_data_0 $end
       $var wire 1 } pipeline_valid_0 $end
       $var wire 1 "( valid $end
       $var wire 1 "4 mask $end
       $var wire 1 "A clk $end
      $upscope $end
      $scope module _T $end
       $var wire 1 ) clk $end
       $var wire 16 h addr $end
       $var wire 1 k en $end
       $var wire 32 "9 data $end
      $upscope $end
      $scope module _T_3 $end
       $var wire 1 0 pipeline_valid_0 $end
       $var wire 1 5 en $end
       $var wire 1 6 mask $end
       $var wire 16 9 pipeline_addr_0 $end
       $var wire 16 T addr $end
       $var wire 1 f clk $end
       $var wire 32 z pipeline_data_0 $end
       $var wire 32 "' data $end
       $var wire 1 "K valid $end
      $upscope $end
      $scope module _T_2 $end
       $var wire 1 : clk $end
       $var wire 16 A addr $end
       $var wire 32 ` data $end
       $var wire 1 t en $end
      $upscope $end
    $upscope $end
  $upscope $end
  $scope module accelerator $end
   $var wire 5 " _GEN_2 $end
   $var wire 5 $ _GEN_13 $end
   $var wire 10 ' _GEN_28 $end
   $var wire 10 ( _GEN_34 $end
   $var wire 5 * _GEN_5 $end
   $var wire 10 - _GEN_16 $end
   $var wire 5 1 yReg $end
   $var wire 4 3 _GEN_66 $end
   $var wire 4 4 _GEN_72 $end
   $var wire 4 7 _GEN_8 $end
   $var wire 1 8 _GEN_51 $end
   $var wire 10 ; _GEN_75 $end
   $var wire 8 < _GEN_48 $end
   $var wire 1 = _GEN_33 $end
   $var wire 8 > _GEN_54 $end
   $var wire 10 B _GEN_60 $end
   $var wire 8 C _GEN_69 $end
   $var wire 1 D _GEN_57 $end
   $var wire 1 E _GEN_15 $end
   $var wire 8 F _GEN_42 $end
   $var wire 8 G _GEN_36 $end
   $var wire 5 H _GEN_63 $end
   $var wire 1 I _GEN_21 $end
   $var wire 1 J reset $end
   $var wire 1 K _GEN_24 $end
   $var wire 8 L _GEN_30 $end
   $var wire 4 M _GEN_7 $end
   $var wire 1 O _GEN_45 $end
   $var wire 1 P _GEN_39 $end
   $var wire 5 S _GEN_74 $end
   $var wire 1 U _GEN_27 $end
   $var wire 4 W _GEN_12 $end
   $var wire 4 Y stateReg $end
   $var wire 5 Z _GEN_1 $end
   $var wire 4 \ _GEN_4 $end
   $var wire 1 ] _T $end
   $var wire 1 ^ _GEN_62 $end
   $var wire 5 _ _GEN_56 $end
   $var wire 5 a _GEN_38 $end
   $var wire 5 b _GEN_50 $end
   $var wire 5 d _GEN_44 $end
   $var wire 5 e _GEN_59 $end
   $var wire 1 g _GEN_71 $end
   $var wire 5 j _GEN_65 $end
   $var wire 5 n _GEN_32 $end
   $var wire 4 o _GEN_47 $end
   $var wire 4 p _GEN_53 $end
   $var wire 1 q io_done $end
   $var wire 10 r _GEN_68 $end
   $var wire 5 s _GEN_26 $end
   $var wire 1 u io_writeEnable $end
   $var wire 4 v _GEN_35 $end
   $var wire 4 w _GEN_41 $end
   $var wire 4 { _GEN_29 $end
   $var wire 4 ~ _GEN_14 $end
   $var wire 5 "! _GEN_20 $end
   $var wire 5 "" xReg $end
   $var wire 32 "% io_dataWrite $end
   $var wire 4 ") _GEN_6 $end
   $var wire 8 "* _GEN_23 $end
   $var wire 4 "+ _GEN_0 $end
   $var wire 16 ", io_address $end
   $var wire 1 "- clock $end
   $var wire 4 ". _GEN_9 $end
   $var wire 1 "/ io_start $end
   $var wire 32 "0 io_dataRead $end
   $var wire 5 "1 _GEN_73 $end
   $var wire 5 "3 _GEN_67 $end
   $var wire 8 "5 _GEN_61 $end
   $var wire 1 "6 _GEN_49 $end
   $var wire 10 "7 _GEN_40 $end
   $var wire 1 "8 _GEN_55 $end
   $var wire 4 ": _GEN_3 $end
   $var wire 8 "; _GEN_76 $end
   $var wire 10 "< _GEN_79 $end
   $var wire 1 "= _GEN_70 $end
   $var wire 1 "? _GEN_37 $end
   $var wire 1 "@ _GEN_43 $end
   $var wire 4 "B _GEN_58 $end
   $var wire 10 "C _GEN_22 $end
   $var wire 1 "D _GEN_64 $end
   $var wire 1 "E _GEN_31 $end
   $var wire 10 "F _GEN_46 $end
   $var wire 10 "G _GEN_52 $end
   $var wire 4 "H _GEN_10 $end
   $var wire 4 "I _GEN_19 $end
   $var wire 4 "J _GEN_25 $end
  $upscope $end
$upscope $end
$enddefinitions $end
$dumpvars
b0000000000000000 +
0R
0=
b00000 _
b00000000 G
b0000 "H
b0000 "+
b0000000000000000 x
b0000000000 (
b0000 W
0V
b00000000000000000000000000000000 "2
b00000 ""
b0000 "B
b00000000 ";
0m
b00000000000000000000000000000000 Q
0g
b00000 "3
b00000000000000000000000000000000 `
05
b0000000000000000 %
0"@
b00000 n
0D
0/
0[
b0000 ":
b00000 S
b0000 {
0)
0]
b00000 j
b00000000000000000000000000000000 "&
b00000 d
b0000 w
b00000000 L
0"8
b0000000000 B
b0000000000 -
b00000000000000000000000000000000 ?
b0000 7
b0000000000 '
b00000000000000000000000000000000 "9
b00000 "!
b0000000000000000 "#
0l
0"K
b0000000000000000 T
0O
0:
b0000 3
0f
b0000000000 "7
0"E
b00000 s
0I
b0000000000000000 9
0"(
b00000000 >
b0000000000 "F
0"?
b00000 Z
00
0E
0"$
0"=
b00000000000000000000000000000000 "%
0u
b0000 Y
b00000 1
b00000000000000000000000000000000 "'
b00000 e
1"4
b00000 H
b0000 p
b00000000000000000000000000000000 !
b00000000 "*
0q
b00000 a
b00000000000000000000000000000000 #
b0000000000 "<
0k
b0000000000000000 ",
b0000 "J
0"-
b00000000 C
0P
b0000 4
b00000 "1
0"D
0"/
b00000000 "5
0|
0J
b0000000000 ;
b0000 ")
b0000 M
b0000000000 "G
b00000000000000000000000000000000 "0
b0000000000000000 h
b0000 \
b0000000000 "C
0t
0">
b00000000000000000000000000000000 X
0"6
b00000000000000000000000000000000 &
b0000 o
b0000000000000000 A
b00000000 F
0U
16
b0000 "I
b00000 b
b00000000000000000000000000000000 N
08
b0000000000 r
b0000 ".
02
b00000 *
b00000000 <
b0000 ~
0}
b00000 $
0K
0.
b00000000000000000000000000000000 c
0"A
0y
b0000000000000000 i
b00000000000000000000000000000000 z
b00000000000000000000000000000000 @
b00000 "
0^
0,
b0000 v
$end
#0
b0010 ":
b1001 M
1">
1J
1]
b1001 ")
b1001 7
b1001 "H
1t
b1001 ".
b0011 \
#1
1f
1"A
1"-
1m
1:
1,
1)
#6
0f
0"A
0"-
0m
0:
0,
0)
#11
1f
1"A
1"-
1m
1:
1,
1)
#16
0f
0"A
0"-
0m
0:
0,
0)
#21
1f
1"A
1"-
1m
1:
1,
1)
#26
0f
0"A
0"-
0m
0:
0,
0)
#31
1f
1"A
1"-
1m
1:
1,
1)
#36
0f
0"A
0"-
0m
0:
0,
0)
#41
1f
1"A
1"-
1m
1:
1,
1)
#46
0f
0"A
1.
0J
0"-
1[
1/
0)
0">
1"(
1V
12
1k
0:
0m
0,
0t
#51
1f
1"A
1}
1"-
1m
1:
1,
1)
#56
0f
0"A
b0000000000000001 %
b0000000000000001 h
b0000000000000001 x
b0000000000000001 "#
0"-
0m
0:
0,
0)
#61
1f
1"A
b0000000000000001 +
1"-
1m
1:
1,
1)
#66
0f
0"A
b0000000000000010 %
b0000000000000010 h
b0000000000000010 x
b0000000000000010 "#
0"-
0m
0:
0,
0)
#71
1f
1"A
b0000000000000010 +
1"-
1m
1:
1,
1)
#76
0f
0"A
b0000000000000011 %
b0000000000000011 h
b0000000000000011 x
b0000000000000011 "#
0"-
0m
0:
0,
0)
#81
1f
1"A
b0000000000000011 +
1"-
1m
1:
1,
1)
#86
0f
0"A
b0000000000000100 %
b0000000000000100 h
b0000000000000100 x
b0000000000000100 "#
0"-
0m
0:
0,
0)
#91
1f
1"A
b0000000000000100 +
1"-
1m
1:
1,
1)
#96
0f
0"A
b0000000000000101 %
b0000000000000101 h
b0000000000000101 x
b0000000000000101 "#
0"-
0m
0:
0,
0)
#101
1f
1"A
b0000000000000101 +
1"-
1m
1:
1,
1)
#106
0f
0"A
b0000000000000110 %
b0000000000000110 h
b0000000000000110 x
b0000000000000110 "#
0"-
0m
0:
0,
0)
#111
1f
1"A
b0000000000000110 +
1"-
1m
1:
1,
1)
#116
0f
0"A
b0000000000000111 %
b0000000000000111 h
b0000000000000111 x
b0000000000000111 "#
0"-
0m
0:
0,
0)
#121
1f
1"A
b0000000000000111 +
1"-
1m
1:
1,
1)
#126
0f
0"A
b0000000000001000 %
b0000000000001000 h
b0000000000001000 x
b0000000000001000 "#
0"-
0m
0:
0,
0)
#131
1f
1"A
b0000000000001000 +
1"-
1m
1:
1,
1)
#136
0f
0"A
b0000000000001001 %
b0000000000001001 h
b0000000000001001 x
b0000000000001001 "#
0"-
0m
0:
0,
0)
#141
1f
1"A
b0000000000001001 +
1"-
1m
1:
1,
1)
#146
0f
0"A
b0000000000001010 %
b0000000000001010 h
b0000000000001010 x
b0000000000001010 "#
0"-
0m
0:
0,
0)
#151
1f
1"A
b0000000000001010 +
1"-
1m
1:
1,
1)
#156
0f
0"A
b0000000000001011 %
b0000000000001011 h
b0000000000001011 x
b0000000000001011 "#
0"-
0m
0:
0,
0)
#161
1f
1"A
b0000000000001011 +
1"-
1m
1:
1,
1)
#166
0f
0"A
b0000000000001100 %
b0000000000001100 h
b0000000000001100 x
b0000000000001100 "#
0"-
0m
0:
0,
0)
#171
1f
1"A
b0000000000001100 +
1"-
1m
1:
1,
1)
#176
0f
0"A
b0000000000001101 %
b0000000000001101 h
b0000000000001101 x
b0000000000001101 "#
0"-
0m
0:
0,
0)
#181
1f
1"A
b0000000000001101 +
1"-
1m
1:
1,
1)
#186
0f
0"A
b0000000000001110 %
b0000000000001110 h
b0000000000001110 x
b0000000000001110 "#
0"-
0m
0:
0,
0)
#191
1f
1"A
b0000000000001110 +
1"-
1m
1:
1,
1)
#196
0f
0"A
b0000000000001111 %
b0000000000001111 h
b0000000000001111 x
b0000000000001111 "#
0"-
0m
0:
0,
0)
#201
1f
1"A
b0000000000001111 +
1"-
1m
1:
1,
1)
#206
0f
0"A
b0000000000010000 %
b0000000000010000 h
b0000000000010000 x
b0000000000010000 "#
0"-
0m
0:
0,
0)
#211
1f
1"A
b0000000000010000 +
1"-
1m
1:
1,
1)
#216
0f
0"A
b0000000000010001 %
b0000000000010001 h
b0000000000010001 x
b0000000000010001 "#
0"-
0m
0:
0,
0)
#221
1f
1"A
b0000000000010001 +
1"-
1m
1:
1,
1)
#226
0f
0"A
b0000000000010010 %
b0000000000010010 h
b0000000000010010 x
b0000000000010010 "#
0"-
0m
0:
0,
0)
#231
1f
1"A
b0000000000010010 +
1"-
1m
1:
1,
1)
#236
0f
0"A
b0000000000010011 %
b0000000000010011 h
b0000000000010011 x
b0000000000010011 "#
0"-
0m
0:
0,
0)
#241
1f
1"A
b0000000000010011 +
1"-
1m
1:
1,
1)
#246
0f
0"A
b0000000000010100 %
b0000000000010100 h
b0000000000010100 x
b0000000000010100 "#
0"-
0m
0:
0,
0)
#251
1f
1"A
b0000000000010100 +
1"-
1m
1:
1,
1)
#256
0f
0"A
b0000000000010101 %
b0000000000010101 h
b0000000000010101 x
b0000000000010101 "#
0"-
0m
0:
0,
0)
#261
1f
1"A
b0000000000010101 +
1"-
1m
1:
1,
1)
#266
0f
0"A
b0000000000010110 %
b0000000000010110 h
b0000000000010110 x
b0000000000010110 "#
0"-
0m
0:
0,
0)
#271
1f
1"A
b0000000000010110 +
1"-
1m
1:
1,
1)
#276
0f
0"A
b0000000000010111 %
b0000000000010111 h
b0000000000010111 x
b0000000000010111 "#
0"-
0m
0:
0,
0)
#281
1f
1"A
b0000000000010111 +
1"-
1m
1:
1,
1)
#286
0f
0"A
b0000000000011000 %
b0000000000011000 h
b0000000000011000 x
b0000000000011000 "#
0"-
0m
0:
0,
0)
#291
1f
1"A
b0000000000011000 +
1"-
1m
1:
1,
1)
#296
0f
0"A
b0000000000011001 %
b0000000000011001 h
b0000000000011001 x
b0000000000011001 "#
0"-
0m
0:
0,
0)
#301
1f
1"A
b0000000000011001 +
1"-
1m
1:
1,
1)
#306
0f
0"A
b0000000000011010 %
b0000000000011010 h
b0000000000011010 x
b0000000000011010 "#
0"-
0m
0:
0,
0)
#311
1f
1"A
b0000000000011010 +
1"-
1m
1:
1,
1)
#316
0f
0"A
b0000000000011011 %
b0000000000011011 h
b0000000000011011 x
b0000000000011011 "#
0"-
0m
0:
0,
0)
#321
1f
1"A
b0000000000011011 +
1"-
1m
1:
1,
1)
#326
0f
0"A
b0000000000011100 %
b0000000000011100 h
b0000000000011100 x
b0000000000011100 "#
0"-
0m
0:
0,
0)
#331
1f
1"A
b0000000000011100 +
1"-
1m
1:
1,
1)
#336
0f
0"A
b0000000000011101 %
b0000000000011101 h
b0000000000011101 x
b0000000000011101 "#
0"-
0m
0:
0,
0)
#341
1f
1"A
b0000000000011101 +
1"-
1m
1:
1,
1)
#346
0f
0"A
b0000000000011110 %
b0000000000011110 h
b0000000000011110 x
b0000000000011110 "#
0"-
0m
0:
0,
0)
#351
1f
1"A
b0000000000011110 +
1"-
1m
1:
1,
1)
#356
0f
0"A
b0000000000011111 %
b0000000000011111 h
b0000000000011111 x
b0000000000011111 "#
0"-
0m
0:
0,
0)
#361
1f
1"A
b0000000000011111 +
1"-
1m
1:
1,
1)
#366
0f
0"A
b0000000000100000 %
b0000000000100000 h
b0000000000100000 x
b0000000000100000 "#
0"-
0m
0:
0,
0)
#371
1f
1"A
b0000000000100000 +
1"-
1m
1:
1,
1)
#376
0f
0"A
b0000000000100001 %
b0000000000100001 h
b0000000000100001 x
b0000000000100001 "#
0"-
0m
0:
0,
0)
#381
1f
1"A
b0000000000100001 +
1"-
1m
1:
1,
1)
#386
0f
0"A
b0000000000100010 %
b0000000000100010 h
b0000000000100010 x
b0000000000100010 "#
0"-
0m
0:
0,
0)
#391
1f
1"A
b0000000000100010 +
1"-
1m
1:
1,
1)
#396
0f
0"A
b0000000000100011 %
b0000000000100011 h
b0000000000100011 x
b0000000000100011 "#
0"-
0m
0:
0,
0)
#401
1f
1"A
b0000000000100011 +
1"-
1m
1:
1,
1)
#406
0f
0"A
b0000000000100100 %
b0000000000100100 h
b0000000000100100 x
b0000000000100100 "#
0"-
0m
0:
0,
0)
#411
1f
1"A
b0000000000100100 +
1"-
1m
1:
1,
1)
#416
0f
0"A
b0000000000100101 %
b0000000000100101 h
b0000000000100101 x
b0000000000100101 "#
0"-
0m
0:
0,
0)
#421
1f
1"A
b0000000000100101 +
1"-
1m
1:
1,
1)
#426
0f
0"A
b0000000000100110 %
b0000000000100110 h
b0000000000100110 x
b0000000000100110 "#
0"-
0m
0:
0,
0)
#431
1f
1"A
b0000000000100110 +
1"-
1m
1:
1,
1)
#436
0f
0"A
b0000000000100111 %
b0000000000100111 h
b0000000000100111 x
b0000000000100111 "#
0"-
0m
0:
0,
0)
#441
1f
1"A
b0000000000100111 +
1"-
1m
1:
1,
1)
#446
0f
0"A
b0000000000101000 %
b0000000000101000 h
b0000000000101000 x
b0000000000101000 "#
0"-
0m
0:
0,
0)
#451
1f
1"A
b0000000000101000 +
1"-
1m
1:
1,
1)
#456
0f
0"A
b0000000000101001 %
b0000000000101001 h
b0000000000101001 x
b0000000000101001 "#
0"-
0m
0:
0,
0)
#461
1f
1"A
b0000000000101001 +
1"-
1m
1:
1,
1)
#466
0f
0"A
b0000000000101010 %
b0000000000101010 h
b0000000000101010 x
b0000000000101010 "#
0"-
0m
0:
0,
0)
#471
1f
1"A
b0000000000101010 +
1"-
1m
1:
1,
1)
#476
0f
0"A
b0000000000101011 %
b0000000000101011 h
b0000000000101011 x
b0000000000101011 "#
0"-
0m
0:
0,
0)
#481
1f
1"A
b0000000000101011 +
1"-
1m
1:
1,
1)
#486
0f
0"A
b0000000000101100 %
b0000000000101100 h
b0000000000101100 x
b0000000000101100 "#
0"-
0m
0:
0,
0)
#491
1f
1"A
b0000000000101100 +
1"-
1m
1:
1,
1)
#496
0f
0"A
b0000000000101101 %
b0000000000101101 h
b0000000000101101 x
b0000000000101101 "#
0"-
0m
0:
0,
0)
#501
1f
1"A
b0000000000101101 +
1"-
1m
1:
1,
1)
#506
0f
0"A
b0000000000101110 %
b0000000000101110 h
b0000000000101110 x
b0000000000101110 "#
0"-
0m
0:
0,
0)
#511
1f
1"A
b0000000000101110 +
1"-
1m
1:
1,
1)
#516
0f
0"A
b0000000000101111 %
b0000000000101111 h
b0000000000101111 x
b0000000000101111 "#
0"-
0m
0:
0,
0)
#521
1f
1"A
b0000000000101111 +
1"-
1m
1:
1,
1)
#526
0f
0"A
b0000000000110000 %
b0000000000110000 h
b0000000000110000 x
b0000000000110000 "#
0"-
0m
0:
0,
0)
#531
1f
1"A
b0000000000110000 +
1"-
1m
1:
1,
1)
#536
0f
0"A
b0000000000110001 %
b0000000000110001 h
b0000000000110001 x
b0000000000110001 "#
0"-
0m
0:
0,
0)
#541
1f
1"A
b0000000000110001 +
1"-
1m
1:
1,
1)
#546
0f
0"A
b0000000000110010 %
b0000000000110010 h
b0000000000110010 x
b0000000000110010 "#
0"-
0m
0:
0,
0)
#551
1f
1"A
b0000000000110010 +
1"-
1m
1:
1,
1)
#556
0f
0"A
b0000000000110011 %
b0000000000110011 h
b0000000000110011 x
b0000000000110011 "#
0"-
0m
0:
0,
0)
#561
1f
1"A
b0000000000110011 +
1"-
1m
1:
1,
1)
#566
0f
0"A
b0000000000110100 %
b0000000000110100 h
b0000000000110100 x
b0000000000110100 "#
0"-
0m
0:
0,
0)
#571
1f
1"A
b0000000000110100 +
1"-
1m
1:
1,
1)
#576
0f
0"A
b0000000000110101 %
b0000000000110101 h
b0000000000110101 x
b0000000000110101 "#
0"-
0m
0:
0,
0)
#581
1f
1"A
b0000000000110101 +
1"-
1m
1:
1,
1)
#586
0f
0"A
b0000000000110110 %
b0000000000110110 h
b0000000000110110 x
b0000000000110110 "#
0"-
0m
0:
0,
0)
#591
1f
1"A
b0000000000110110 +
1"-
1m
1:
1,
1)
#596
0f
0"A
b0000000000110111 %
b0000000000110111 h
b0000000000110111 x
b0000000000110111 "#
0"-
0m
0:
0,
0)
#601
1f
1"A
b0000000000110111 +
1"-
1m
1:
1,
1)
#606
0f
0"A
b0000000000111000 %
b0000000000111000 h
b0000000000111000 x
b0000000000111000 "#
0"-
0m
0:
0,
0)
#611
1f
1"A
b0000000000111000 +
1"-
1m
1:
1,
1)
#616
0f
0"A
b0000000000111001 %
b0000000000111001 h
b0000000000111001 x
b0000000000111001 "#
0"-
0m
0:
0,
0)
#621
1f
1"A
b0000000000111001 +
1"-
1m
1:
1,
1)
#626
0f
0"A
b0000000000111010 %
b0000000000111010 h
b0000000000111010 x
b0000000000111010 "#
0"-
0m
0:
0,
0)
#631
1f
1"A
b0000000000111010 +
1"-
1m
1:
1,
1)
#636
0f
0"A
b0000000000111011 %
b0000000000111011 h
b0000000000111011 x
b0000000000111011 "#
0"-
0m
0:
0,
0)
#641
1f
1"A
b0000000000111011 +
1"-
1m
1:
1,
1)
#646
0f
0"A
b0000000000111100 %
b0000000000111100 h
b0000000000111100 x
b0000000000111100 "#
0"-
0m
0:
0,
0)
#651
1f
1"A
b0000000000111100 +
1"-
1m
1:
1,
1)
#656
0f
0"A
b0000000000111101 %
b0000000000111101 h
b0000000000111101 x
b0000000000111101 "#
0"-
0m
0:
0,
0)
#661
1f
1"A
b0000000000111101 +
1"-
1m
1:
1,
1)
#666
0f
0"A
b0000000000111110 %
b0000000000111110 h
b0000000000111110 x
b0000000000111110 "#
0"-
0m
0:
0,
0)
#671
1f
1"A
b0000000000111110 +
1"-
1m
1:
1,
1)
#676
0f
0"A
b0000000000111111 %
b0000000000111111 h
b0000000000111111 x
b0000000000111111 "#
0"-
0m
0:
0,
0)
#681
1f
1"A
b0000000000111111 +
1"-
1m
1:
1,
1)
#686
0f
0"A
b0000000001000000 %
b0000000001000000 h
b0000000001000000 x
b0000000001000000 "#
0"-
0m
0:
0,
0)
#691
1f
1"A
b0000000001000000 +
1"-
1m
1:
1,
1)
#696
0f
0"A
b0000000001000001 %
b0000000001000001 h
b0000000001000001 x
b0000000001000001 "#
0"-
0m
0:
0,
0)
#701
1f
1"A
b0000000001000001 +
1"-
1m
1:
1,
1)
#706
0f
0"A
b0000000001000010 %
b0000000001000010 h
b0000000001000010 x
b0000000001000010 "#
0"-
0m
0:
0,
0)
#711
1f
1"A
b0000000001000010 +
1"-
1m
1:
1,
1)
#716
0f
0"A
b0000000001000011 %
b0000000001000011 h
b0000000001000011 x
b0000000001000011 "#
0"-
0m
0:
0,
0)
#721
1f
1"A
b0000000001000011 +
1"-
1m
1:
1,
1)
#726
0f
0"A
b0000000001000100 %
b0000000001000100 h
b0000000001000100 x
b0000000001000100 "#
0"-
0m
0:
0,
0)
#731
1f
1"A
b0000000001000100 +
1"-
1m
1:
1,
1)
#736
0f
0"A
b0000000001000101 %
b0000000001000101 h
b0000000001000101 x
b0000000001000101 "#
0"-
0m
0:
0,
0)
#741
1f
1"A
b0000000001000101 +
1"-
1m
1:
1,
1)
#746
0f
0"A
b0000000001000110 %
b0000000001000110 h
b0000000001000110 x
b0000000001000110 "#
0"-
0m
0:
0,
0)
#751
1f
1"A
b0000000001000110 +
1"-
1m
1:
1,
1)
#756
0f
0"A
b0000000001000111 %
b0000000001000111 h
b0000000001000111 x
b0000000001000111 "#
0"-
0m
0:
0,
0)
#761
1f
1"A
b0000000001000111 +
1"-
1m
1:
1,
1)
#766
0f
0"A
b0000000001001000 %
b0000000001001000 h
b0000000001001000 x
b0000000001001000 "#
0"-
0m
0:
0,
0)
#771
1f
1"A
b0000000001001000 +
1"-
1m
1:
1,
1)
#776
0f
0"A
b0000000001001001 %
b0000000001001001 h
b0000000001001001 x
b0000000001001001 "#
0"-
0m
0:
0,
0)
#781
1f
1"A
b0000000001001001 +
1"-
1m
1:
1,
1)
#786
0f
0"A
b0000000001001010 %
b0000000001001010 h
b0000000001001010 x
b0000000001001010 "#
0"-
0m
0:
0,
0)
#791
1f
1"A
b0000000001001010 +
1"-
1m
1:
1,
1)
#796
0f
0"A
b0000000001001011 %
b0000000001001011 h
b0000000001001011 x
b0000000001001011 "#
0"-
0m
0:
0,
0)
#801
1f
1"A
b0000000001001011 +
1"-
1m
1:
1,
1)
#806
0f
0"A
b0000000001001100 %
b0000000001001100 h
b0000000001001100 x
b0000000001001100 "#
0"-
0m
0:
0,
0)
#811
1f
1"A
b0000000001001100 +
1"-
1m
1:
1,
1)
#816
0f
0"A
b0000000001001101 %
b0000000001001101 h
b0000000001001101 x
b0000000001001101 "#
0"-
0m
0:
0,
0)
#821
1f
1"A
b0000000001001101 +
1"-
1m
1:
1,
1)
#826
0f
0"A
b0000000001001110 %
b0000000001001110 h
b0000000001001110 x
b0000000001001110 "#
0"-
0m
0:
0,
0)
#831
1f
1"A
b0000000001001110 +
1"-
1m
1:
1,
1)
#836
0f
0"A
b0000000001001111 %
b0000000001001111 h
b0000000001001111 x
b0000000001001111 "#
0"-
0m
0:
0,
0)
#841
1f
1"A
b0000000001001111 +
1"-
1m
1:
1,
1)
#846
0f
0"A
b0000000001010000 %
b0000000001010000 h
b0000000001010000 x
b0000000001010000 "#
0"-
0m
0:
0,
0)
#851
1f
1"A
b0000000001010000 +
1"-
1m
1:
1,
1)
#856
0f
0"A
b0000000001010001 %
b0000000001010001 h
b0000000001010001 x
b0000000001010001 "#
0"-
0m
0:
0,
0)
#861
1f
1"A
b0000000001010001 +
1"-
1m
1:
1,
1)
#866
0f
0"A
b0000000001010010 %
b0000000001010010 h
b0000000001010010 x
b0000000001010010 "#
0"-
0m
0:
0,
0)
#871
1f
1"A
b0000000001010010 +
1"-
1m
1:
1,
1)
#876
0f
0"A
b0000000001010011 %
b0000000001010011 h
b0000000001010011 x
b0000000001010011 "#
0"-
0m
0:
0,
0)
#881
1f
1"A
b0000000001010011 +
1"-
1m
1:
1,
1)
#886
0f
0"A
b0000000001010100 %
b0000000001010100 h
b0000000001010100 x
b0000000001010100 "#
0"-
0m
0:
0,
0)
#891
1f
1"A
b0000000001010100 +
1"-
1m
1:
1,
1)
#896
0f
0"A
b0000000001010101 %
b0000000001010101 h
b0000000001010101 x
b0000000001010101 "#
0"-
0m
0:
0,
0)
#901
1f
1"A
b0000000001010101 +
1"-
1m
1:
1,
1)
#906
0f
0"A
b0000000001010110 %
b0000000001010110 h
b0000000001010110 x
b0000000001010110 "#
0"-
0m
0:
0,
0)
#911
1f
1"A
b0000000001010110 +
1"-
1m
1:
1,
1)
#916
0f
0"A
b0000000001010111 %
b0000000001010111 h
b0000000001010111 x
b0000000001010111 "#
0"-
0m
0:
0,
0)
#921
1f
1"A
b0000000001010111 +
1"-
1m
1:
1,
1)
#926
0f
0"A
b0000000001011000 %
b0000000001011000 h
b0000000001011000 x
b0000000001011000 "#
0"-
0m
0:
0,
0)
#931
1f
1"A
b0000000001011000 +
1"-
1m
1:
1,
1)
#936
0f
0"A
b0000000001011001 %
b0000000001011001 h
b0000000001011001 x
b0000000001011001 "#
0"-
0m
0:
0,
0)
#941
1f
1"A
b0000000001011001 +
1"-
1m
1:
1,
1)
#946
0f
0"A
b0000000001011010 %
b0000000001011010 h
b0000000001011010 x
b0000000001011010 "#
0"-
0m
0:
0,
0)
#951
1f
1"A
b0000000001011010 +
1"-
1m
1:
1,
1)
#956
0f
0"A
b0000000001011011 %
b0000000001011011 h
b0000000001011011 x
b0000000001011011 "#
0"-
0m
0:
0,
0)
#961
1f
1"A
b0000000001011011 +
1"-
1m
1:
1,
1)
#966
0f
0"A
b0000000001011100 %
b0000000001011100 h
b0000000001011100 x
b0000000001011100 "#
0"-
0m
0:
0,
0)
#971
1f
1"A
b0000000001011100 +
1"-
1m
1:
1,
1)
#976
0f
0"A
b0000000001011101 %
b0000000001011101 h
b0000000001011101 x
b0000000001011101 "#
0"-
0m
0:
0,
0)
#981
1f
1"A
b0000000001011101 +
1"-
1m
1:
1,
1)
#986
0f
0"A
b0000000001011110 %
b0000000001011110 h
b0000000001011110 x
b0000000001011110 "#
0"-
0m
0:
0,
0)
#991
1f
1"A
b0000000001011110 +
1"-
1m
1:
1,
1)
#996
0f
0"A
b0000000001011111 %
b0000000001011111 h
b0000000001011111 x
b0000000001011111 "#
0"-
0m
0:
0,
0)
#1001
1f
1"A
b0000000001011111 +
1"-
1m
1:
1,
1)
#1006
0f
0"A
b0000000001100000 %
b0000000001100000 h
b0000000001100000 x
b0000000001100000 "#
0"-
0m
0:
0,
0)
#1011
1f
1"A
b0000000001100000 +
1"-
1m
1:
1,
1)
#1016
0f
b00000000000000000000000011111111 Q
0"A
b00000000000000000000000011111111 "2
b0000000001100001 %
b00000000000000000000000011111111 X
b00000000000000000000000011111111 &
b0000000001100001 h
b0000000001100001 x
0"-
0)
b00000000000000000000000011111111 N
b00000000000000000000000011111111 #
b0000000001100001 "#
0:
0m
0,
#1021
1f
b00000000000000000000000011111111 c
1"A
b0000000001100001 +
1"-
1m
1:
b00000000000000000000000011111111 "9
1,
1)
#1026
0f
b00000000000000000000000000000000 Q
0"A
b00000000000000000000000000000000 "2
b0000000001100010 %
b00000000000000000000000000000000 X
b00000000000000000000000000000000 &
b0000000001100010 h
b0000000001100010 x
0"-
0)
b00000000000000000000000000000000 N
b00000000000000000000000000000000 #
b0000000001100010 "#
0:
0m
b00000000000000000000000000000000 "9
0,
#1031
1f
b00000000000000000000000000000000 c
1"A
b0000000001100010 +
1"-
1m
1:
1,
1)
#1036
0f
0"A
b0000000001100011 %
b0000000001100011 h
b0000000001100011 x
b0000000001100011 "#
0"-
0m
0:
0,
0)
#1041
1f
1"A
b0000000001100011 +
1"-
1m
1:
1,
1)
#1046
0f
0"A
b0000000001100100 %
b0000000001100100 h
b0000000001100100 x
b0000000001100100 "#
0"-
0m
0:
0,
0)
#1051
1f
1"A
b0000000001100100 +
1"-
1m
1:
1,
1)
#1056
0f
0"A
b0000000001100101 %
b0000000001100101 h
b0000000001100101 x
b0000000001100101 "#
0"-
0m
0:
0,
0)
#1061
1f
1"A
b0000000001100101 +
1"-
1m
1:
1,
1)
#1066
0f
b00000000000000000000000011111111 Q
0"A
b00000000000000000000000011111111 "2
b0000000001100110 %
b00000000000000000000000011111111 X
b00000000000000000000000011111111 &
b0000000001100110 h
b0000000001100110 x
0"-
0)
b00000000000000000000000011111111 N
b00000000000000000000000011111111 #
b0000000001100110 "#
0:
0m
0,
