generated/SystemTop.vcd
$date
2021-11-12T14:42+0000
$end
$version
0.2
$end
$comment

$end
$timescale 1ns  $end
$scope module SystemTop $end
 $var wire 32 # io_testerDataMemDataRead $end
 $var wire 1 . io_testerDataMemWriteEnable $end
 $var wire 32 R io_testerDataMemDataWrite $end
 $var wire 1 S io_start $end
 $var wire 1 \ io_testerDataMemEnable $end
 $var wire 1 n clock $end
 $var wire 16 y io_testerDataMemAddress $end
 $var wire 1 z dataMemory $end
 $var wire 1 } accelerator $end
 $var wire 1 "% io_done $end
 $var wire 1 "@ reset $end
  $scope module dataMemory $end
   $var wire 32 ! _GEN_11 $end
   $var wire 32 & io_testerDataWrite $end
   $var wire 1 , clock $end
   $var wire 1 / io_testerEnable $end
   $var wire 32 @ io_dataRead $end
   $var wire 32 A io_dataWrite $end
   $var wire 1 W io_testerWriteEnable $end
   $var wire 32 Y _GEN_5 $end
   $var wire 16 j io_address $end
   $var wire 1 m io_writeEnable $end
   $var wire 16 "$ io_testerAddress $end
   $var wire 32 "( memory $end
   $var wire 32 "4 io_testerDataRead $end
    $scope module memory $end
      $scope module _T_1 $end
       $var wire 16 % addr $end
       $var wire 16 + pipeline_addr_0 $end
       $var wire 1 2 en $end
       $var wire 32 O data $end
       $var wire 32 d pipeline_data_0 $end
       $var wire 1 ~ pipeline_valid_0 $end
       $var wire 1 "* valid $end
       $var wire 1 "6 mask $end
       $var wire 1 "C clk $end
      $upscope $end
      $scope module _T $end
       $var wire 1 ) clk $end
       $var wire 16 i addr $end
       $var wire 1 l en $end
       $var wire 32 "; data $end
      $upscope $end
      $scope module _T_3 $end
       $var wire 1 0 pipeline_valid_0 $end
       $var wire 1 5 en $end
       $var wire 1 6 mask $end
       $var wire 16 : pipeline_addr_0 $end
       $var wire 16 U addr $end
       $var wire 1 g clk $end
       $var wire 32 { pipeline_data_0 $end
       $var wire 32 ") data $end
       $var wire 1 "M valid $end
      $upscope $end
      $scope module _T_2 $end
       $var wire 1 ; clk $end
       $var wire 16 B addr $end
       $var wire 32 a data $end
       $var wire 1 u en $end
      $upscope $end
    $upscope $end
  $upscope $end
  $scope module accelerator $end
   $var wire 5 " _GEN_2 $end
   $var wire 5 $ _GEN_13 $end
   $var wire 10 ' _GEN_28 $end
   $var wire 10 ( _GEN_34 $end
   $var wire 5 * _GEN_5 $end
   $var wire 10 - _GEN_16 $end
   $var wire 5 1 yReg $end
   $var wire 4 3 _GEN_66 $end
   $var wire 4 4 _GEN_72 $end
   $var wire 32 7 dataReg $end
   $var wire 4 8 _GEN_8 $end
   $var wire 1 9 _GEN_51 $end
   $var wire 10 < _GEN_75 $end
   $var wire 32 = _GEN_48 $end
   $var wire 1 > _GEN_33 $end
   $var wire 32 ? _GEN_54 $end
   $var wire 10 C _GEN_60 $end
   $var wire 32 D _GEN_69 $end
   $var wire 1 E _GEN_57 $end
   $var wire 1 F _GEN_15 $end
   $var wire 32 G _GEN_42 $end
   $var wire 32 H _GEN_36 $end
   $var wire 5 I _GEN_63 $end
   $var wire 1 J _GEN_21 $end
   $var wire 1 K reset $end
   $var wire 1 L _GEN_24 $end
   $var wire 32 M _GEN_30 $end
   $var wire 4 N _GEN_7 $end
   $var wire 1 P _GEN_45 $end
   $var wire 1 Q _GEN_39 $end
   $var wire 5 T _GEN_74 $end
   $var wire 1 V _GEN_27 $end
   $var wire 4 X _GEN_12 $end
   $var wire 4 Z stateReg $end
   $var wire 5 [ _GEN_1 $end
   $var wire 4 ] _GEN_4 $end
   $var wire 1 ^ _T $end
   $var wire 1 _ _GEN_62 $end
   $var wire 5 ` _GEN_56 $end
   $var wire 5 b _GEN_38 $end
   $var wire 5 c _GEN_50 $end
   $var wire 5 e _GEN_44 $end
   $var wire 5 f _GEN_59 $end
   $var wire 1 h _GEN_71 $end
   $var wire 5 k _GEN_65 $end
   $var wire 5 o _GEN_32 $end
   $var wire 4 p _GEN_47 $end
   $var wire 4 q _GEN_53 $end
   $var wire 1 r io_done $end
   $var wire 10 s _GEN_68 $end
   $var wire 5 t _GEN_26 $end
   $var wire 1 v io_writeEnable $end
   $var wire 4 w _GEN_35 $end
   $var wire 4 x _GEN_41 $end
   $var wire 4 | _GEN_29 $end
   $var wire 4 "! _GEN_14 $end
   $var wire 5 "" _GEN_20 $end
   $var wire 5 "# xReg $end
   $var wire 32 "& _GEN_17 $end
   $var wire 32 "' io_dataWrite $end
   $var wire 4 "+ _GEN_6 $end
   $var wire 32 ", _GEN_23 $end
   $var wire 4 "- _GEN_0 $end
   $var wire 16 ". io_address $end
   $var wire 1 "/ clock $end
   $var wire 4 "0 _GEN_9 $end
   $var wire 1 "1 io_start $end
   $var wire 32 "2 io_dataRead $end
   $var wire 5 "3 _GEN_73 $end
   $var wire 5 "5 _GEN_67 $end
   $var wire 32 "7 _GEN_61 $end
   $var wire 1 "8 _GEN_49 $end
   $var wire 10 "9 _GEN_40 $end
   $var wire 1 ": _GEN_55 $end
   $var wire 4 "< _GEN_3 $end
   $var wire 32 "= _GEN_76 $end
   $var wire 10 "> _GEN_79 $end
   $var wire 1 "? _GEN_70 $end
   $var wire 1 "A _GEN_37 $end
   $var wire 1 "B _GEN_43 $end
   $var wire 4 "D _GEN_58 $end
   $var wire 10 "E _GEN_22 $end
   $var wire 1 "F _GEN_64 $end
   $var wire 1 "G _GEN_31 $end
   $var wire 10 "H _GEN_46 $end
   $var wire 10 "I _GEN_52 $end
   $var wire 4 "J _GEN_10 $end
   $var wire 4 "K _GEN_19 $end
   $var wire 4 "L _GEN_25 $end
  $upscope $end
$upscope $end
$enddefinitions $end
$dumpvars
b00000000000000000000000000000000 Y
b0000000000000000 +
b0000000000000000 B
b0000000000 C
0"1
1"6
b0000 "+
b0000000000 (
0V
b00000000000000000000000000000000 "2
b00000 ""
b00000000000000000000000000000000 O
0m
b00000000000000000000000000000000 "4
b0000 "D
0g
0"F
b00000 "3
b0000000000000000 :
05
b0000000000000000 %
0~
0L
0"@
0/
b0000000000 "I
0F
0":
0)
0z
0r
b0000 "<
b00000000000000000000000000000000 A
b0000000000 "E
b00000000000000000000000000000000 "&
0W
b0000 "K
b0000 "!
b0000 w
0v
b0000 Z
b00000000000000000000000000000000 "=
0"8
b0000 "0
b00000 I
b0000 q
b0000000000 -
b00000000000000000000000000000000 ?
0>
b0000000000 '
0l
0"C
b0000 3
0Q
0"?
0"*
b0000000000 "H
b00000 o
0E
00
b0000 |
0u
b00000 1
b0000000000 ">
b00000000000000000000000000000000 "'
b00000000000000000000000000000000 D
b0000000000000000 ".
b00000 e
0;
b0000 "L
b0000 p
b00000000000000000000000000000000 !
b0000 8
b00000000000000000000000000000000 #
b0000 "J
b00000 c
09
b0000000000000000 "$
b0000 "-
b00000 [
b0000000000 s
b0000000000000000 U
0P
b0000 4
0"/
b00000 t
0J
b00000 "5
b00000000000000000000000000000000 M
b00000000000000000000000000000000 "(
b00000000000000000000000000000000 d
0"B
b00000000000000000000000000000000 G
0"%
b0000000000000000 j
b00000000000000000000000000000000 {
b00000000000000000000000000000000 ",
b0000000000000000 y
b0000 X
0_
b00000000000000000000000000000000 ";
b00000000000000000000000000000000 &
0n
0"M
b00000 f
b00000000000000000000000000000000 =
b00000000000000000000000000000000 "7
0S
b0000000000 "9
b00000 `
b00000000000000000000000000000000 7
b0000 N
16
b00000 b
b00000 "#
02
b00000 *
b00000000000000000000000000000000 R
0}
0h
b00000 $
0"G
b00000000000000000000000000000000 a
0K
b0000000000 <
0.
b0000 x
0"A
b00000000000000000000000000000000 ")
b0000000000000000 i
b0000 ]
0\
b00000000000000000000000000000000 H
b00000000000000000000000000000000 @
b00000 T
b00000 "
0^
b00000 k
0,
$end
#0
1u
b1001 N
b1001 "0
b1001 8
1K
b0011 ]
b1001 "J
1^
b0010 "<
1"@
b1001 "+
#1
1)
1"/
1g
1"C
1,
1;
1n
#6
0)
0"/
0g
0"C
0,
0;
0n
#11
1)
1"/
1g
1"C
1,
1;
1n
#16
0)
0"/
0g
0"C
0,
0;
0n
#21
1)
1"/
1g
1"C
1,
1;
1n
#26
0)
0"/
0g
0"C
0,
0;
0n
#31
1)
1"/
1g
1"C
1,
1;
1n
#36
0)
0"/
0g
0"C
0,
0;
0n
#41
1)
1"/
1g
1"C
1,
1;
1n
#46
0;
0u
0g
1.
0"C
0K
1/
0)
1\
0"/
12
1l
1W
1"*
0,
0"@
0n
#51
1)
1"/
1g
1"C
1~
1,
1;
1n
#56
0)
0"/
b0000000000000001 %
b0000000000000001 y
b0000000000000001 "$
0g
0"C
b0000000000000001 i
0,
0;
0n
#61
1)
1"/
1g
1"C
b0000000000000001 +
1,
1;
1n
#66
0)
0"/
b0000000000000010 %
b0000000000000010 y
b0000000000000010 "$
0g
0"C
b0000000000000010 i
0,
0;
0n
#71
1)
1"/
1g
1"C
b0000000000000010 +
1,
1;
1n
#76
0)
0"/
b0000000000000011 %
b0000000000000011 y
b0000000000000011 "$
0g
0"C
b0000000000000011 i
0,
0;
0n
#81
1)
1"/
1g
1"C
b0000000000000011 +
1,
1;
1n
#86
0)
0"/
b0000000000000100 %
b0000000000000100 y
b0000000000000100 "$
0g
0"C
b0000000000000100 i
0,
0;
0n
#91
1)
1"/
1g
1"C
b0000000000000100 +
1,
1;
1n
#96
0)
0"/
b0000000000000101 %
b0000000000000101 y
b0000000000000101 "$
0g
0"C
b0000000000000101 i
0,
0;
0n
#101
1)
1"/
1g
1"C
b0000000000000101 +
1,
1;
1n
#106
0)
0"/
b0000000000000110 %
b0000000000000110 y
b0000000000000110 "$
0g
0"C
b0000000000000110 i
0,
0;
0n
#111
1)
1"/
1g
1"C
b0000000000000110 +
1,
1;
1n
#116
0)
0"/
b0000000000000111 %
b0000000000000111 y
b0000000000000111 "$
0g
0"C
b0000000000000111 i
0,
0;
0n
#121
1)
1"/
1g
1"C
b0000000000000111 +
1,
1;
1n
#126
0)
0"/
b0000000000001000 %
b0000000000001000 y
b0000000000001000 "$
0g
0"C
b0000000000001000 i
0,
0;
0n
#131
1)
1"/
1g
1"C
b0000000000001000 +
1,
1;
1n
#136
0)
0"/
b0000000000001001 %
b0000000000001001 y
b0000000000001001 "$
0g
0"C
b0000000000001001 i
0,
0;
0n
#141
1)
1"/
1g
1"C
b0000000000001001 +
1,
1;
1n
#146
0)
0"/
b0000000000001010 %
b0000000000001010 y
b0000000000001010 "$
0g
0"C
b0000000000001010 i
0,
0;
0n
#151
1)
1"/
1g
1"C
b0000000000001010 +
1,
1;
1n
#156
0)
0"/
b0000000000001011 %
b0000000000001011 y
b0000000000001011 "$
0g
0"C
b0000000000001011 i
0,
0;
0n
#161
1)
1"/
1g
1"C
b0000000000001011 +
1,
1;
1n
#166
0)
0"/
b0000000000001100 %
b0000000000001100 y
b0000000000001100 "$
0g
0"C
b0000000000001100 i
0,
0;
0n
#171
1)
1"/
1g
1"C
b0000000000001100 +
1,
1;
1n
#176
0)
0"/
b0000000000001101 %
b0000000000001101 y
b0000000000001101 "$
0g
0"C
b0000000000001101 i
0,
0;
0n
#181
1)
1"/
1g
1"C
b0000000000001101 +
1,
1;
1n
#186
0)
0"/
b0000000000001110 %
b0000000000001110 y
b0000000000001110 "$
0g
0"C
b0000000000001110 i
0,
0;
0n
#191
1)
1"/
1g
1"C
b0000000000001110 +
1,
1;
1n
#196
0)
0"/
b0000000000001111 %
b0000000000001111 y
b0000000000001111 "$
0g
0"C
b0000000000001111 i
0,
0;
0n
#201
1)
1"/
1g
1"C
b0000000000001111 +
1,
1;
1n
#206
0)
0"/
b0000000000010000 %
b0000000000010000 y
b0000000000010000 "$
0g
0"C
b0000000000010000 i
0,
0;
0n
#211
1)
1"/
1g
1"C
b0000000000010000 +
1,
1;
1n
#216
0)
0"/
b0000000000010001 %
b0000000000010001 y
b0000000000010001 "$
0g
0"C
b0000000000010001 i
0,
0;
0n
#221
1)
1"/
1g
1"C
b0000000000010001 +
1,
1;
1n
#226
0)
0"/
b0000000000010010 %
b0000000000010010 y
b0000000000010010 "$
0g
0"C
b0000000000010010 i
0,
0;
0n
#231
1)
1"/
1g
1"C
b0000000000010010 +
1,
1;
1n
#236
0)
0"/
b0000000000010011 %
b0000000000010011 y
b0000000000010011 "$
0g
0"C
b0000000000010011 i
0,
0;
0n
#241
1)
1"/
1g
1"C
b0000000000010011 +
1,
1;
1n
#246
0)
0"/
b0000000000010100 %
b0000000000010100 y
b0000000000010100 "$
0g
0"C
b0000000000010100 i
0,
0;
0n
#251
1)
1"/
1g
1"C
b0000000000010100 +
1,
1;
1n
#256
0)
0"/
b0000000000010101 %
b0000000000010101 y
b0000000000010101 "$
0g
0"C
b0000000000010101 i
0,
0;
0n
#261
1)
1"/
1g
1"C
b0000000000010101 +
1,
1;
1n
#266
0)
0"/
b0000000000010110 %
b0000000000010110 y
b0000000000010110 "$
0g
0"C
b0000000000010110 i
0,
0;
0n
#271
1)
1"/
1g
1"C
b0000000000010110 +
1,
1;
1n
#276
0)
0"/
b0000000000010111 %
b0000000000010111 y
b0000000000010111 "$
0g
0"C
b0000000000010111 i
0,
0;
0n
#281
1)
1"/
1g
1"C
b0000000000010111 +
1,
1;
1n
#286
0)
0"/
b0000000000011000 %
b0000000000011000 y
b0000000000011000 "$
0g
0"C
b0000000000011000 i
0,
0;
0n
#291
1)
1"/
1g
1"C
b0000000000011000 +
1,
1;
1n
#296
0)
0"/
b0000000000011001 %
b0000000000011001 y
b0000000000011001 "$
0g
0"C
b0000000000011001 i
0,
0;
0n
#301
1)
1"/
1g
1"C
b0000000000011001 +
1,
1;
1n
#306
0)
0"/
b0000000000011010 %
b0000000000011010 y
b0000000000011010 "$
0g
0"C
b0000000000011010 i
0,
0;
0n
#311
1)
1"/
1g
1"C
b0000000000011010 +
1,
1;
1n
#316
0)
0"/
b0000000000011011 %
b0000000000011011 y
b0000000000011011 "$
0g
0"C
b0000000000011011 i
0,
0;
0n
#321
1)
1"/
1g
1"C
b0000000000011011 +
1,
1;
1n
#326
0)
0"/
b0000000000011100 %
b0000000000011100 y
b0000000000011100 "$
0g
0"C
b0000000000011100 i
0,
0;
0n
#331
1)
1"/
1g
1"C
b0000000000011100 +
1,
1;
1n
#336
0)
0"/
b0000000000011101 %
b0000000000011101 y
b0000000000011101 "$
0g
0"C
b0000000000011101 i
0,
0;
0n
#341
1)
1"/
1g
1"C
b0000000000011101 +
1,
1;
1n
#346
0)
0"/
b0000000000011110 %
b0000000000011110 y
b0000000000011110 "$
0g
0"C
b0000000000011110 i
0,
0;
0n
#351
1)
1"/
1g
1"C
b0000000000011110 +
1,
1;
1n
#356
0)
0"/
b0000000000011111 %
b0000000000011111 y
b0000000000011111 "$
0g
0"C
b0000000000011111 i
0,
0;
0n
#361
1)
1"/
1g
1"C
b0000000000011111 +
1,
1;
1n
#366
0)
0"/
b0000000000100000 %
b0000000000100000 y
b0000000000100000 "$
0g
0"C
b0000000000100000 i
0,
0;
0n
#371
1)
1"/
1g
1"C
b0000000000100000 +
1,
1;
1n
#376
0)
0"/
b0000000000100001 %
b0000000000100001 y
b0000000000100001 "$
0g
0"C
b0000000000100001 i
0,
0;
0n
#381
1)
1"/
1g
1"C
b0000000000100001 +
1,
1;
1n
#386
0)
0"/
b0000000000100010 %
b0000000000100010 y
b0000000000100010 "$
0g
0"C
b0000000000100010 i
0,
0;
0n
#391
1)
1"/
1g
1"C
b0000000000100010 +
1,
1;
1n
#396
0)
0"/
b0000000000100011 %
b0000000000100011 y
b0000000000100011 "$
0g
0"C
b0000000000100011 i
0,
0;
0n
#401
1)
1"/
1g
1"C
b0000000000100011 +
1,
1;
1n
#406
0)
0"/
b0000000000100100 %
b0000000000100100 y
b0000000000100100 "$
0g
0"C
b0000000000100100 i
0,
0;
0n
#411
1)
1"/
1g
1"C
b0000000000100100 +
1,
1;
1n
#416
0)
0"/
b0000000000100101 %
b0000000000100101 y
b0000000000100101 "$
0g
0"C
b0000000000100101 i
0,
0;
0n
#421
1)
1"/
1g
1"C
b0000000000100101 +
1,
1;
1n
#426
0)
0"/
b0000000000100110 %
b0000000000100110 y
b0000000000100110 "$
0g
0"C
b0000000000100110 i
0,
0;
0n
#431
1)
1"/
1g
1"C
b0000000000100110 +
1,
1;
1n
#436
0)
0"/
b0000000000100111 %
b0000000000100111 y
b0000000000100111 "$
0g
0"C
b0000000000100111 i
0,
0;
0n
#441
1)
1"/
1g
1"C
b0000000000100111 +
1,
1;
1n
#446
0)
0"/
b0000000000101000 %
b0000000000101000 y
b0000000000101000 "$
0g
0"C
b0000000000101000 i
0,
0;
0n
#451
1)
1"/
1g
1"C
b0000000000101000 +
1,
1;
1n
#456
0)
0"/
b0000000000101001 %
b0000000000101001 y
b0000000000101001 "$
0g
0"C
b0000000000101001 i
0,
0;
0n
#461
1)
1"/
1g
1"C
b0000000000101001 +
1,
1;
1n
#466
0)
0"/
b0000000000101010 %
b0000000000101010 y
b0000000000101010 "$
0g
0"C
b0000000000101010 i
0,
0;
0n
#471
1)
1"/
1g
1"C
b0000000000101010 +
1,
1;
1n
#476
0)
0"/
b0000000000101011 %
b0000000000101011 y
b0000000000101011 "$
0g
0"C
b0000000000101011 i
0,
0;
0n
#481
1)
1"/
1g
1"C
b0000000000101011 +
1,
1;
1n
#486
0)
0"/
b0000000000101100 %
b0000000000101100 y
b0000000000101100 "$
0g
0"C
b0000000000101100 i
0,
0;
0n
#491
1)
1"/
1g
1"C
b0000000000101100 +
1,
1;
1n
#496
0)
0"/
b0000000000101101 %
b0000000000101101 y
b0000000000101101 "$
0g
0"C
b0000000000101101 i
0,
0;
0n
#501
1)
1"/
1g
1"C
b0000000000101101 +
1,
1;
1n
#506
0)
0"/
b0000000000101110 %
b0000000000101110 y
b0000000000101110 "$
0g
0"C
b0000000000101110 i
0,
0;
0n
#511
1)
1"/
1g
1"C
b0000000000101110 +
1,
1;
1n
#516
0)
0"/
b0000000000101111 %
b0000000000101111 y
b0000000000101111 "$
0g
0"C
b0000000000101111 i
0,
0;
0n
#521
1)
1"/
1g
1"C
b0000000000101111 +
1,
1;
1n
#526
0)
0"/
b0000000000110000 %
b0000000000110000 y
b0000000000110000 "$
0g
0"C
b0000000000110000 i
0,
0;
0n
#531
1)
1"/
1g
1"C
b0000000000110000 +
1,
1;
1n
#536
0)
0"/
b0000000000110001 %
b0000000000110001 y
b0000000000110001 "$
0g
0"C
b0000000000110001 i
0,
0;
0n
#541
1)
1"/
1g
1"C
b0000000000110001 +
1,
1;
1n
#546
0)
0"/
b0000000000110010 %
b0000000000110010 y
b0000000000110010 "$
0g
0"C
b0000000000110010 i
0,
0;
0n
#551
1)
1"/
1g
1"C
b0000000000110010 +
1,
1;
1n
#556
0)
0"/
b0000000000110011 %
b0000000000110011 y
b0000000000110011 "$
0g
0"C
b0000000000110011 i
0,
0;
0n
#561
1)
1"/
1g
1"C
b0000000000110011 +
1,
1;
1n
#566
0)
0"/
b0000000000110100 %
b0000000000110100 y
b0000000000110100 "$
0g
0"C
b0000000000110100 i
0,
0;
0n
#571
1)
1"/
1g
1"C
b0000000000110100 +
1,
1;
1n
#576
0)
0"/
b0000000000110101 %
b0000000000110101 y
b0000000000110101 "$
0g
0"C
b0000000000110101 i
0,
0;
0n
#581
1)
1"/
1g
1"C
b0000000000110101 +
1,
1;
1n
#586
0)
0"/
b0000000000110110 %
b0000000000110110 y
b0000000000110110 "$
0g
0"C
b0000000000110110 i
0,
0;
0n
#591
1)
1"/
1g
1"C
b0000000000110110 +
1,
1;
1n
#596
0)
0"/
b0000000000110111 %
b0000000000110111 y
b0000000000110111 "$
0g
0"C
b0000000000110111 i
0,
0;
0n
#601
1)
1"/
1g
1"C
b0000000000110111 +
1,
1;
1n
#606
0)
0"/
b0000000000111000 %
b0000000000111000 y
b0000000000111000 "$
0g
0"C
b0000000000111000 i
0,
0;
0n
#611
1)
1"/
1g
1"C
b0000000000111000 +
1,
1;
1n
#616
0)
0"/
b0000000000111001 %
b0000000000111001 y
b0000000000111001 "$
0g
0"C
b0000000000111001 i
0,
0;
0n
#621
1)
1"/
1g
1"C
b0000000000111001 +
1,
1;
1n
#626
0)
0"/
b0000000000111010 %
b0000000000111010 y
b0000000000111010 "$
0g
0"C
b0000000000111010 i
0,
0;
0n
#631
1)
1"/
1g
1"C
b0000000000111010 +
1,
1;
1n
#636
0)
0"/
b0000000000111011 %
b0000000000111011 y
b0000000000111011 "$
0g
0"C
b0000000000111011 i
0,
0;
0n
#641
1)
1"/
1g
1"C
b0000000000111011 +
1,
1;
1n
#646
0)
0"/
b0000000000111100 %
b0000000000111100 y
b0000000000111100 "$
0g
0"C
b0000000000111100 i
0,
0;
0n
#651
1)
1"/
1g
1"C
b0000000000111100 +
1,
1;
1n
#656
0)
0"/
b0000000000111101 %
b0000000000111101 y
b0000000000111101 "$
0g
0"C
b0000000000111101 i
0,
0;
0n
#661
1)
1"/
1g
1"C
b0000000000111101 +
1,
1;
1n
#666
0)
0"/
b0000000000111110 %
b0000000000111110 y
b0000000000111110 "$
0g
0"C
b0000000000111110 i
0,
0;
0n
#671
1)
1"/
1g
1"C
b0000000000111110 +
1,
1;
1n
#676
0)
0"/
b0000000000111111 %
b0000000000111111 y
b0000000000111111 "$
0g
0"C
b0000000000111111 i
0,
0;
0n
#681
1)
1"/
1g
1"C
b0000000000111111 +
1,
1;
1n
#686
0)
0"/
b0000000001000000 %
b0000000001000000 y
b0000000001000000 "$
0g
0"C
b0000000001000000 i
0,
0;
0n
#691
1)
1"/
1g
1"C
b0000000001000000 +
1,
1;
1n
#696
0)
0"/
b0000000001000001 %
b0000000001000001 y
b0000000001000001 "$
0g
0"C
b0000000001000001 i
0,
0;
0n
#701
1)
1"/
1g
1"C
b0000000001000001 +
1,
1;
1n
#706
0)
0"/
b0000000001000010 %
b0000000001000010 y
b0000000001000010 "$
0g
0"C
b0000000001000010 i
0,
0;
0n
#711
1)
1"/
1g
1"C
b0000000001000010 +
1,
1;
1n
#716
0)
0"/
b0000000001000011 %
b0000000001000011 y
b0000000001000011 "$
0g
0"C
b0000000001000011 i
0,
0;
0n
#721
1)
1"/
1g
1"C
b0000000001000011 +
1,
1;
1n
#726
0)
0"/
b0000000001000100 %
b0000000001000100 y
b0000000001000100 "$
0g
0"C
b0000000001000100 i
0,
0;
0n
#731
1)
1"/
1g
1"C
b0000000001000100 +
1,
1;
1n
#736
0)
0"/
b0000000001000101 %
b0000000001000101 y
b0000000001000101 "$
0g
0"C
b0000000001000101 i
0,
0;
0n
#741
1)
1"/
1g
1"C
b0000000001000101 +
1,
1;
1n
#746
0)
0"/
b0000000001000110 %
b0000000001000110 y
b0000000001000110 "$
0g
0"C
b0000000001000110 i
0,
0;
0n
#751
1)
1"/
1g
1"C
b0000000001000110 +
1,
1;
1n
#756
0)
0"/
b0000000001000111 %
b0000000001000111 y
b0000000001000111 "$
0g
0"C
b0000000001000111 i
0,
0;
0n
#761
1)
1"/
1g
1"C
b0000000001000111 +
1,
1;
1n
#766
0)
0"/
b0000000001001000 %
b0000000001001000 y
b0000000001001000 "$
0g
0"C
b0000000001001000 i
0,
0;
0n
#771
1)
1"/
1g
1"C
b0000000001001000 +
1,
1;
1n
#776
0)
0"/
b0000000001001001 %
b0000000001001001 y
b0000000001001001 "$
0g
0"C
b0000000001001001 i
0,
0;
0n
#781
1)
1"/
1g
1"C
b0000000001001001 +
1,
1;
1n
#786
0)
0"/
b0000000001001010 %
b0000000001001010 y
b0000000001001010 "$
0g
0"C
b0000000001001010 i
0,
0;
0n
#791
1)
1"/
1g
1"C
b0000000001001010 +
1,
1;
1n
#796
0)
0"/
b0000000001001011 %
b0000000001001011 y
b0000000001001011 "$
0g
0"C
b0000000001001011 i
0,
0;
0n
#801
1)
1"/
1g
1"C
b0000000001001011 +
1,
1;
1n
#806
0)
0"/
b0000000001001100 %
b0000000001001100 y
b0000000001001100 "$
0g
0"C
b0000000001001100 i
0,
0;
0n
#811
1)
1"/
1g
1"C
b0000000001001100 +
1,
1;
1n
#816
0)
0"/
b0000000001001101 %
b0000000001001101 y
b0000000001001101 "$
0g
0"C
b0000000001001101 i
0,
0;
0n
#821
1)
1"/
1g
1"C
b0000000001001101 +
1,
1;
1n
#826
0)
0"/
b0000000001001110 %
b0000000001001110 y
b0000000001001110 "$
0g
0"C
b0000000001001110 i
0,
0;
0n
#831
1)
1"/
1g
1"C
b0000000001001110 +
1,
1;
1n
#836
0)
0"/
b0000000001001111 %
b0000000001001111 y
b0000000001001111 "$
0g
0"C
b0000000001001111 i
0,
0;
0n
#841
1)
1"/
1g
1"C
b0000000001001111 +
1,
1;
1n
#846
0)
0"/
b0000000001010000 %
b0000000001010000 y
b0000000001010000 "$
0g
0"C
b0000000001010000 i
0,
0;
0n
#851
1)
1"/
1g
1"C
b0000000001010000 +
1,
1;
1n
#856
0)
0"/
b0000000001010001 %
b0000000001010001 y
b0000000001010001 "$
0g
0"C
b0000000001010001 i
0,
0;
0n
#861
1)
1"/
1g
1"C
b0000000001010001 +
1,
1;
1n
#866
0)
0"/
b0000000001010010 %
b0000000001010010 y
b0000000001010010 "$
0g
0"C
b0000000001010010 i
0,
0;
0n
#871
1)
1"/
1g
1"C
b0000000001010010 +
1,
1;
1n
#876
0)
0"/
b0000000001010011 %
b0000000001010011 y
b0000000001010011 "$
0g
0"C
b0000000001010011 i
0,
0;
0n
#881
1)
1"/
1g
1"C
b0000000001010011 +
1,
1;
1n
#886
0)
0"/
b0000000001010100 %
b0000000001010100 y
b0000000001010100 "$
0g
0"C
b0000000001010100 i
0,
0;
0n
#891
1)
1"/
1g
1"C
b0000000001010100 +
1,
1;
1n
#896
0)
0"/
b0000000001010101 %
b0000000001010101 y
b0000000001010101 "$
0g
0"C
b0000000001010101 i
0,
0;
0n
#901
1)
1"/
1g
1"C
b0000000001010101 +
1,
1;
1n
#906
0)
0"/
b0000000001010110 %
b0000000001010110 y
b0000000001010110 "$
0g
0"C
b0000000001010110 i
0,
0;
0n
#911
1)
1"/
1g
1"C
b0000000001010110 +
1,
1;
1n
#916
0)
0"/
b0000000001010111 %
b0000000001010111 y
b0000000001010111 "$
0g
0"C
b0000000001010111 i
0,
0;
0n
#921
1)
1"/
1g
1"C
b0000000001010111 +
1,
1;
1n
#926
0)
0"/
b0000000001011000 %
b0000000001011000 y
b0000000001011000 "$
0g
0"C
b0000000001011000 i
0,
0;
0n
#931
1)
1"/
1g
1"C
b0000000001011000 +
1,
1;
1n
#936
0)
0"/
b0000000001011001 %
b0000000001011001 y
b0000000001011001 "$
0g
0"C
b0000000001011001 i
0,
0;
0n
#941
1)
1"/
1g
1"C
b0000000001011001 +
1,
1;
1n
#946
0)
0"/
b0000000001011010 %
b0000000001011010 y
b0000000001011010 "$
0g
0"C
b0000000001011010 i
0,
0;
0n
#951
1)
1"/
1g
1"C
b0000000001011010 +
1,
1;
1n
#956
0)
0"/
b0000000001011011 %
b0000000001011011 y
b0000000001011011 "$
0g
0"C
b0000000001011011 i
0,
0;
0n
#961
1)
1"/
1g
1"C
b0000000001011011 +
1,
1;
1n
#966
0)
0"/
b0000000001011100 %
b0000000001011100 y
b0000000001011100 "$
0g
0"C
b0000000001011100 i
0,
0;
0n
#971
1)
1"/
1g
1"C
b0000000001011100 +
1,
1;
1n
#976
0)
0"/
b0000000001011101 %
b0000000001011101 y
b0000000001011101 "$
0g
0"C
b0000000001011101 i
0,
0;
0n
#981
1)
1"/
1g
1"C
b0000000001011101 +
1,
1;
1n
#986
0)
0"/
b0000000001011110 %
b0000000001011110 y
b0000000001011110 "$
0g
0"C
b0000000001011110 i
0,
0;
0n
#991
1)
1"/
1g
1"C
b0000000001011110 +
1,
1;
1n
#996
b0000000001011111 %
b0000000001011111 "$
b00000000000000000000000011111111 R
0g
b00000000000000000000000011111111 &
b00000000000000000000000011111111 Y
b00000000000000000000000011111111 "4
0"C
b0000000001011111 i
0)
0"/
b0000000001011111 y
b00000000000000000000000011111111 #
b00000000000000000000000011111111 O
0,
0;
0n
#1001
1)
1"/
1g
b00000000000000000000000011111111 d
1"C
b00000000000000000000000011111111 ";
b0000000001011111 +
1,
1;
1n
#1006
b0000000001100000 %
b0000000001100000 "$
b00000000000000000000000000000000 R
0g
b00000000000000000000000000000000 &
b00000000000000000000000000000000 Y
b00000000000000000000000000000000 "4
0"C
b00000000000000000000000000000000 ";
b0000000001100000 i
0)
0"/
b0000000001100000 y
b00000000000000000000000000000000 #
b00000000000000000000000000000000 O
0,
0;
0n
#1011
1)
1"/
1g
b00000000000000000000000000000000 d
1"C
b0000000001100000 +
1,
1;
1n
#1016
0)
0"/
b0000000001100001 %
b0000000001100001 y
b0000000001100001 "$
0g
0"C
b0000000001100001 i
0,
0;
0n
#1021
1)
1"/
1g
1"C
b0000000001100001 +
1,
1;
1n
#1026
0)
0"/
b0000000001100010 %
b0000000001100010 y
b0000000001100010 "$
0g
0"C
b0000000001100010 i
0,
0;
0n
#1031
1)
1"/
1g
1"C
b0000000001100010 +
1,
1;
1n
#1036
0)
0"/
b0000000001100011 %
b0000000001100011 y
b0000000001100011 "$
0g
0"C
b0000000001100011 i
0,
0;
0n
#1041
1)
1"/
1g
1"C
b0000000001100011 +
1,
1;
1n
#1046
0)
0"/
b0000000001100100 %
b0000000001100100 y
b0000000001100100 "$
0g
0"C
b0000000001100100 i
0,
0;
0n
#1051
1)
1"/
1g
1"C
b0000000001100100 +
1,
1;
1n
#1056
0)
0"/
b0000000001100101 %
b0000000001100101 y
b0000000001100101 "$
0g
0"C
b0000000001100101 i
0,
0;
0n
#1061
1)
1"/
1g
1"C
b0000000001100101 +
1,
1;
1n
#1066
0)
0"/
b0000000001100110 %
b0000000001100110 y
b0000000001100110 "$
0g
0"C
b0000000001100110 i
0,
0;
0n
